sep=;
trial;trialInteractionElapsedTime;trialElapsedTime;nrInteractions;minDuration;maxDuration;avgDuration;minAverageInterpenetration;maxAverageInterpenetration;avgAverageInterpenetration;minMaxInterpenetration;maxMaxInterpenetration;avgMaxInterpenetration;minVelocityAtContact;maxVelocityAtContact;avgVelocityAtContact
0;70.82361;137.027;75;0.03253174;2.965027;0.3638566;5.948204E-05;0.05390247;0.01323053;9.492262E-05;0.08151817;0.02362839;0.08001895;0.9615436;0.4686946
1;64.50012;70.98602;75;0.02288818;1.55481;0.2292863;0;0.06121463;0.01675206;0;0.1067294;0.02858935;0.05572636;2.724588;0.7449394
2;28.83875;32.80414;25;0.07781982;0.2895508;0.1690161;0.0001222658;0.03154979;0.01105102;0.000242533;0.05100501;0.01846868;0.04294046;1.543929;0.7129267
3;25.64087;28.70483;35;0.02215576;0.3079834;0.1602992;7.225868E-05;0.04260208;0.01562844;0.0001109364;0.07266701;0.02694757;0.06734962;1.546952;0.8542123
4;26.41992;30.18494;28;0.04333496;0.3441772;0.1746063;0.0001017208;0.04824355;0.01541715;0.0001738674;0.07932316;0.02657438;0.07392777;1.86656;0.8890901
5;29.4411;32.72675;28;0.08886719;0.7113037;0.2018193;0.0009136383;0.04892932;0.02013499;0.00278003;0.0811656;0.03447678;0.08811633;2.129683;1.020613
6;21.00031;26.96387;26;0.09985352;0.2119141;0.1631258;0.0001024974;0.05630257;0.01800823;0.000196173;0.1001447;0.03179835;0.05572321;2.168871;0.9356024
7;22.6322;25.37598;35;0.06640625;0.333374;0.1980451;8.737257E-05;0.05420871;0.02340986;0.0001545534;0.09729041;0.04135037;0.07053705;2.46028;1.013062
8;23.73029;27.01855;34;0.1222534;0.944397;0.2868042;0.002331312;0.05983579;0.02908101;0.004247854;0.1352518;0.05405978;0.03268512;2.049886;0.8565969
9;22.73254;25.96326;30;0.03326416;0.2554932;0.1314148;0.0001887119;0.04046206;0.01109136;0.0004068581;0.06814443;0.01944898;0.07546525;1.84795;0.7024592
10;20.1333;22.59863;35;0.02197266;0.2556152;0.1457345;0.000302307;0.05293234;0.02154751;0.0003279374;0.0936493;0.03832315;0.09650075;2.268881;1.171337
11;22.177;24.39917;42;0.03320313;0.2322998;0.1304234;0.000162361;0.05264951;0.01380269;0.000267395;0.09397849;0.02436345;0.1002405;2.076376;0.7704707
12;19.92236;22.1217;35;0.0435791;0.2888184;0.176695;0.0003234188;0.04779304;0.02044855;0.0004369743;0.07673828;0.03607586;0.1530565;2.254852;0.987476
13;70.32153;73.0752;35;0;0.4108887;0.1718506;0;0.0716541;0.03296495;0;0.1041285;0.05659358;0.244879;2.466336;1.495747
14;32.15112;34.80542;42;0.02209473;0.3212891;0.1645043;0.0006859052;0.07203582;0.03210446;0.001170224;0.09467211;0.05158201;0.1322077;2.803211;1.392633
15;20.00024;22.67664;31;0.04467773;0.2332764;0.1519342;0.0004483071;0.0475767;0.02201651;0.000930998;0.07940616;0.03804817;0.0566549;2.119486;1.088955
16;24.42114;30.65173;28;0.05554199;0.2769775;0.1613072;0.0002931323;0.05745878;0.02047126;0.0004132688;0.09141795;0.03432728;0.2204774;2.121704;0.9472256
17;16.57739;19.88647;23;0.111084;0.7092285;0.1891771;0.004491178;0.06132252;0.02868429;0.007561278;0.1041478;0.04837089;0.09985652;2.090121;1.182789
54;56.16821;60.65234;35;0.04443359;0.7434082;0.2133092;0.0002791765;0.05209525;0.01259271;0.0007351291;0.07234263;0.0211885;0.1554705;1.497934;0.5375515
55;15.98071;19.73364;13;0.1887207;1.05542;0.3820801;0.01708651;0.1393779;0.04034059;0.02849539;0.3569337;0.07595466;0.3111304;1.383543;0.7576975
56;8.359619;10.3042;10;0.1437988;0.9885254;0.2997314;0.002235523;0.06897672;0.03471488;0.005342245;0.1169605;0.05662674;0.3756359;1.745301;0.8353225
57;9.080078;11.0564;14;0.1103516;0.2453613;0.1746303;0.00420951;0.06958485;0.03446787;0.008238356;0.1013735;0.05649793;0.5397118;2.02837;1.240324
58;12.96973;19.95508;18;0.07739258;0.2661133;0.1702745;0.001520099;0.07426402;0.02754644;0.003956339;0.1109581;0.04640627;0.4927223;2.147228;1.276475
59;11.5271;14.30249;16;0.02197266;0.3549805;0.225296;0.007784822;0.06457693;0.03725026;0.01321015;0.1094295;0.0634785;0.09769761;1.425142;0.9739906
60;12.73682;15.19019;11;0.1662598;0.5224609;0.2705966;0.005344419;0.06336885;0.02851812;0.01002443;0.1047597;0.04877612;0.1946487;1.738384;0.9102561
61;12.63745;14.76978;18;0.1660156;0.7758789;0.2620171;0.001008288;0.0526563;0.02740326;0.002316841;0.09439718;0.04911023;0.03836607;1.751842;0.8415852
62;11.97217;14.94727;16;0.04394531;0.2658691;0.1719513;0.003777068;0.09712775;0.03324136;0.006442061;0.1265121;0.05438949;0.358624;2.464766;1.167295
63;17.35718;20.05518;23;0.02197266;0.2666016;0.1582987;0.0001561422;0.06068851;0.02315319;0.0002710315;0.1034808;0.03915672;0.1174132;2.150117;0.8958282
64;18.16772;24.61011;39;0.04394531;0.3212891;0.1493139;0.0002893021;0.05949819;0.02099469;0.0005430263;0.1043451;0.03627715;0.1499813;1.776619;0.7220625
65;23.49951;26.87427;31;0.01074219;0.2880859;0.1448069;0;0.07258172;0.02801268;0;0.1203245;0.04766315;0.32631;1.776597;1.119262
66;10.51416;12.36816;29;0.0222168;0.199707;0.1197889;0.000277039;0.05587978;0.01444972;0.0004926249;0.09629732;0.02548676;0.04629462;1.989712;0.6262773
67;7.41748;9.316162;10;0.06738281;0.2546387;0.1632812;0.0006120813;0.07212111;0.02403385;0.0009415952;0.09235042;0.03909003;0.4199523;2.009115;0.9068335
68;10.31348;12.20264;10;0.1772461;0.4335938;0.2355957;0.002152438;0.05305281;0.02222805;0.004521817;0.08715247;0.03935656;0.2405335;1.61231;0.7796595
69;16.03491;19.54395;19;0.0769043;0.5209961;0.2337325;0.0001977686;0.05805309;0.01722472;0.0003920594;0.09779857;0.03032352;0.03107829;1.63762;0.5686322
70;11.51367;13.6123;21;0.02246094;0.1782227;0.1175595;0.001959516;0.04253898;0.01998444;0.003783345;0.08390681;0.03480606;0.4198933;1.622259;0.9066653
71;19.52271;21.51953;20;0.09960938;0.3669434;0.2415405;0.003744626;0.0788193;0.03230056;0.005168025;0.1347118;0.05595838;0.2465033;2.30325;0.9780446
