Block,TrialInBlock,Trial,Interaction,TactileFX,Question1,Completed,Attempts,Skipped,RespTime,Age,Gender
0,0,0,1,2,4,True,1,False,81.66617,22,Male
0,1,1,1,1,4,True,1,False,25.02069,22,Male
0,2,2,1,5,5,True,1,False,24.66669,22,Male
0,3,3,1,1,3,True,1,False,16.44794,22,Male
0,4,4,1,3,5,True,1,False,19.19128,22,Male
0,5,5,1,0,3,True,1,False,14.61432,22,Male
0,6,6,1,0,3,True,1,False,10.27124,22,Male
0,7,7,1,3,4,True,1,False,18.56799,22,Male
0,8,8,1,5,5,True,1,False,14.24792,22,Male
0,9,9,1,1,3,True,1,False,12.88354,22,Male
0,10,10,1,2,5,True,1,False,28.54376,22,Male
0,11,11,1,4,4,True,1,False,13.03693,22,Male
0,12,12,1,4,4,True,1,False,16.1109,22,Male
0,13,13,1,0,3,True,1,False,15.86047,22,Male
0,14,14,1,2,5,True,1,False,19.78076,22,Male
0,15,15,1,5,5,True,1,False,13.49414,22,Male
0,16,16,1,4,5,True,1,False,15.57251,22,Male
0,17,17,1,3,4,True,1,False,13.78101,22,Male
1,0,18,2,2,2,True,1,False,31.95099,22,Male
1,1,19,2,0,1,True,1,False,29.21179,22,Male
1,2,20,2,3,3,True,1,False,27.71155,22,Male
1,3,21,2,4,5,True,1,False,30.15521,22,Male
1,4,22,2,5,3,True,1,False,37.30481,22,Male
1,5,23,2,1,1,True,1,False,18.60449,22,Male
1,6,24,2,2,2,True,1,False,24.35852,22,Male
1,7,25,2,3,3,True,1,False,23.0575,22,Male
1,8,26,2,0,3,True,1,False,16.29272,22,Male
1,9,27,2,3,3,True,1,False,19.8584,22,Male
1,10,28,2,0,1,True,1,False,23.69006,22,Male
1,11,29,2,2,0,True,1,False,19.98218,22,Male
1,12,30,2,5,1,True,1,False,17.81653,22,Male
1,13,31,2,1,2,True,1,False,19.39307,22,Male
1,14,32,2,4,4,True,1,False,26.13232,22,Male
1,15,33,2,5,4,True,1,False,13.44885,22,Male
1,16,34,2,4,4,True,1,False,24.02209,22,Male
1,17,35,2,1,3,True,1,False,24.83276,22,Male
2,0,36,0,1,4,True,1,False,25.66846,22,Male
2,1,37,0,3,4,True,1,False,21.51306,22,Male
2,2,38,0,2,4,True,1,False,22.55725,22,Male
2,3,39,0,5,5,True,1,False,17.88342,22,Male
2,4,40,0,4,4,True,1,False,12.97192,22,Male
2,5,41,0,1,3,True,1,False,10.97241,22,Male
2,6,42,0,2,4,True,1,False,16.29224,22,Male
2,7,43,0,0,4,True,1,False,17.83752,22,Male
2,8,44,0,1,3,True,1,False,15.04871,22,Male
2,9,45,0,2,4,True,1,False,15.88074,22,Male
2,10,46,0,4,4,True,1,False,15.74915,22,Male
2,11,47,0,5,5,True,1,False,14.0719,22,Male
2,12,48,0,3,2,True,1,False,16.80359,22,Male
2,13,49,0,0,3,True,1,False,28.21997,22,Male
2,14,50,0,0,3,True,1,False,13.87073,22,Male
2,15,51,0,5,4,True,1,False,15.18213,22,Male
2,16,52,0,3,4,True,1,False,25.87756,22,Male
2,17,53,0,4,3,True,1,False,18.8252,22,Male
3,0,54,1,5,4,True,1,False,18.99585,22,Male
3,1,55,1,3,4,True,1,False,10.57227,22,Male
3,2,56,1,5,5,True,1,False,13.40527,22,Male
3,3,57,1,3,4,True,1,False,9.551514,22,Male
3,4,58,1,2,4,True,1,False,18.01392,22,Male
3,5,59,1,1,3,True,1,False,10.08447,22,Male
3,6,60,1,1,3,True,1,False,15.98022,22,Male
3,7,61,1,0,3,True,1,False,10.84033,22,Male
3,8,62,1,0,3,True,1,False,14.62769,22,Male
3,9,63,1,2,4,True,1,False,12.396,22,Male
3,10,64,1,2,5,True,1,False,15.22534,22,Male
3,11,65,1,4,3,True,1,False,13.48022,22,Male
3,12,66,1,0,3,True,1,False,8.551025,22,Male
3,13,67,1,1,4,True,1,False,11.32007,22,Male
3,14,68,1,3,4,True,1,False,8.927002,22,Male
3,15,69,1,5,5,True,1,False,19.06958,22,Male
3,16,70,1,4,4,True,1,False,14.36108,22,Male
3,17,71,1,4,5,True,1,False,11.44165,22,Male
4,0,72,2,0,2,True,1,False,19.12524,22,Male
4,1,73,2,4,4,True,1,False,15.29492,22,Male
4,2,74,2,2,1,True,1,False,11.40552,22,Male
4,3,75,2,4,4,True,1,False,9.551758,22,Male
4,4,76,2,3,3,True,1,False,13.32764,22,Male
4,5,77,2,4,5,True,1,False,16.85938,22,Male
4,6,78,2,0,3,True,1,False,13.48511,22,Male
4,7,79,2,1,2,True,1,False,11.76147,22,Male
4,8,80,2,5,1,True,1,False,12.82642,22,Male
4,9,81,2,2,2,True,1,False,14.86035,22,Male
4,10,82,2,2,2,True,1,False,21.88794,22,Male
4,11,83,2,1,2,True,1,False,14.5481,22,Male
4,12,84,2,5,2,True,1,False,21.29004,22,Male
4,13,85,2,5,3,True,1,False,20.54932,22,Male
4,14,86,2,3,3,True,1,False,12.69409,22,Male
4,15,87,2,3,4,True,1,False,17.96924,22,Male
4,16,88,2,0,3,True,1,False,17.104,22,Male
4,17,89,2,1,3,True,1,False,15.63599,22,Male
5,0,90,0,2,3,True,1,False,14.09424,22,Male
5,1,91,0,3,2,True,1,False,17.17041,22,Male
5,2,92,0,0,3,True,1,False,12.76074,22,Male
5,3,93,0,5,4,True,1,False,6.041748,22,Male
5,4,94,0,1,4,True,1,False,9.163086,22,Male
5,5,95,0,0,3,True,1,False,9.073486,22,Male
5,6,96,0,2,4,True,1,False,12.14038,22,Male
5,7,97,0,0,3,True,1,False,9.963379,22,Male
5,8,98,0,5,5,True,1,False,8.609619,22,Male
5,9,99,0,4,4,True,1,False,8.30835,22,Male
5,10,100,0,2,4,True,1,False,7.274902,22,Male
5,11,101,0,3,3,True,1,False,10.42676,22,Male
5,12,102,0,4,3,True,1,False,13.90723,22,Male
5,13,103,0,1,2,True,1,False,7.831543,22,Male
5,14,104,0,5,4,True,1,False,9.496582,22,Male
5,15,105,0,3,2,True,1,False,8.796875,22,Male
5,16,106,0,4,3,True,1,False,7.696533,22,Male
5,17,107,0,1,3,True,1,False,9.786621,22,Male
