sep=;
trial;trialInteractionElapsedTime;trialElapsedTime;nrInteractions;minDuration;maxDuration;avgDuration;minMaxFingerDisplacement;maxMaxFingerDisplacement;avgMaxFingerDisplacement;minAvgFingerDisplacement;maxAvgFingerDisplacement;avgAvgFingerDisplacement;minMaxSpeed;maxMaxSpeed;avgMaxSpeed;minAvgSpeed;maxAvgSpeed;avgAvgSpeed;minNrOscilatios;maxNrOscilatios;avgNrOscilatios
0;41.37152;53.34308;9;0.02264404;6.242188;1.862752;0.000287652;0.2106628;0.1010852;0.000287652;0.1692255;0.07377109;0.07455751;5.408145;2.318439;0.03832572;2.422577;1.059755;0;20;5.111111
1;20.51959;24.26154;4;0.2213135;6.042053;2.654327;0.1456965;0.2392509;0.1917968;0.08577676;0.1904631;0.1355816;5.123493;5.714569;5.403584;2.283138;3.893363;2.949267;1;17;9.25
2;17.95599;21.71747;9;0.06561279;2.798767;1.023248;0.0218676;0.2649616;0.1258332;0.0218676;0.1759799;0.08543108;2.433101;5.440859;4.165021;1.136748;3.907923;2.299922;0;14;3.777778
3;14.75824;19.30219;5;0.06707764;6.596558;1.964209;0.0276463;0.2161757;0.1484639;0.01602989;0.1678293;0.1035755;4.044929;4.942599;4.38815;1.20529;3.644376;2.404349;1;17;5.6
4;15.26721;20.53204;2;3.028748;7.341309;5.185028;0.1837881;0.2444459;0.214117;0.1418721;0.188702;0.1652871;4.921093;5.091915;5.006504;1.494325;1.899419;1.696872;9;14;11.5
5;11.43732;14.55609;3;0.3109741;4.811707;2.270915;0.1280471;0.2095644;0.1757455;0.06559554;0.149353;0.1180402;4.296819;4.993455;4.669028;1.361447;3.094742;2.157392;2;18;7.666667
6;8.873474;11.67072;1;5.141357;5.141357;5.141357;0.1974756;0.1974756;0.1974756;0.1323153;0.1323153;0.1323153;5.706875;5.706875;5.706875;2.059766;2.059766;2.059766;19;19;19
7;18.34711;20.65717;8;0.03308105;6.285339;1.639908;0.007564768;0.2351177;0.09705379;0.007564768;0.1777966;0.07083665;2.129331;5.382828;3.664522;1.137916;3.181294;2.104531;0;20;5
8;9.82312;12.16858;4;0.1115112;3.367249;1.569046;0.0763067;0.2049012;0.1662029;0.0763067;0.1626554;0.119606;3.33804;4.624463;4.145535;1.620655;3.695557;2.379675;0;10;4.5
9;9.991333;12.24573;2;0.5010376;5.699036;3.100037;0.1668263;0.1927693;0.1797978;0.07699241;0.1399634;0.1084779;3.17712;5.467144;4.322132;1.896689;1.951495;1.924092;2;19;10.5
10;26.28595;31.31378;5;0.02288818;6.596863;2.487366;0.01266831;0.2419135;0.1523269;0.01266831;0.1798403;0.1110651;1.520432;4.784788;3.625035;1.440325;2.496032;2.099742;0;21;8
11;19.50342;21.65485;6;0.03259277;6.749878;2.255839;0.04850191;0.2048497;0.1323342;0.03803623;0.1550231;0.1070264;2.237386;4.248163;3.597892;1.447886;2.682505;2.022824;0;26;7.666667
12;5.841187;8.450317;1;3.619934;3.619934;3.619934;0.200187;0.200187;0.200187;0.1482862;0.1482862;0.1482862;5.122524;5.122524;5.122524;2.25786;2.25786;2.25786;13;13;13
13;9.873596;11.75946;4;0.2878418;2.921326;1.819;0.07811332;0.2204161;0.1774817;0.05199967;0.1501886;0.1193562;2.842677;4.759479;4.198112;1.36404;2.49021;1.988495;1;12;6.75
14;7.529358;9.671692;1;5.540588;5.540588;5.540588;0.1764027;0.1764027;0.1764027;0.1230502;0.1230502;0.1230502;5.218993;5.218993;5.218993;2.382942;2.382942;2.382942;26;26;26
15;9.249695;14.98975;1;5.663452;5.663452;5.663452;0.1778029;0.1778029;0.1778029;0.1137104;0.1137104;0.1137104;5.096662;5.096662;5.096662;2.053523;2.053523;2.053523;25;25;25
16;9.750427;11.93939;1;4.753662;4.753662;4.753662;0.2101228;0.2101228;0.2101228;0.1496803;0.1496803;0.1496803;4.295353;4.295353;4.295353;2.16421;2.16421;2.16421;16;16;16
17;10.09308;15.95569;2;0.9747925;5.040649;3.007721;0.2114246;0.2371035;0.2242641;0.1587826;0.1608082;0.1597954;4.120947;5.21108;4.666014;1.967283;2.100709;2.033996;2;16;9
54;14.61548;18.63245;1;8.717407;8.717407;8.717407;0.179789;0.179789;0.179789;0.1426307;0.1426307;0.1426307;4.297028;4.297028;4.297028;2.04174;2.04174;2.04174;30;30;30
55;9.126709;11.82751;3;1.032715;2.211182;1.795614;0.1615911;0.1969554;0.1737843;0.1086678;0.1396872;0.1239581;3.802804;4.4185;4.208819;1.12647;2.47104;1.977943;1;10;6.666667
56;7.737549;9.814331;1;5.894897;5.894897;5.894897;0.1526857;0.1526857;0.1526857;0.120317;0.120317;0.120317;5.199121;5.199121;5.199121;2.303655;2.303655;2.303655;27;27;27
57;5.63916;7.425415;1;3.897217;3.897217;3.897217;0.1822595;0.1822595;0.1822595;0.1217047;0.1217047;0.1217047;5.050036;5.050036;5.050036;2.340537;2.340537;2.340537;17;17;17
58;5.296631;7.782715;1;4.120361;4.120361;4.120361;0.1916631;0.1916631;0.1916631;0.1410605;0.1410605;0.1410605;4.470116;4.470116;4.470116;2.245977;2.245977;2.245977;17;17;17
59;6.030762;10.4375;3;0.2556152;2.397583;1.054647;0.1555166;0.1922174;0.1792729;0.08334601;0.1347577;0.1089189;3.285382;4.745944;4.217788;1.737452;2.638485;2.293739;1;9;4
60;8.205688;10.23865;3;1.53479;2.485352;1.994995;0.1630576;0.1891563;0.1764028;0.114006;0.134408;0.1212935;3.876479;4.00783;3.937151;2.135211;2.180814;2.154818;6;10;7.666667
61;6.917603;8.639404;5;0.04467773;2.355835;0.9771973;0.00316596;0.2109169;0.1372157;0.00316596;0.1450658;0.09476359;1.93594;4.549098;3.890775;1.672325;2.684775;2.248683;0;11;4
62;7.214478;11.2572;1;5.585693;5.585693;5.585693;0.1704544;0.1704544;0.1704544;0.1384942;0.1384942;0.1384942;5.102433;5.102433;5.102433;2.331459;2.331459;2.331459;23;23;23
63;7.917969;10.83643;3;0.06567383;6.031006;2.06901;0.02931681;0.2031234;0.09059473;0.02931681;0.15545;0.07386861;1.279535;4.290715;3.075908;0.7187369;3.245023;2.029426;0;23;8
64;12.14905;14.41394;3;1.574463;5.564453;2.949788;0.166455;0.2010512;0.1852475;0.1153898;0.1445222;0.1336748;4.642546;4.855261;4.748478;1.721649;2.155111;1.946918;4;20;10.33333
65;21.29919;23.28601;8;0.02282715;3.911133;1.549347;0.005197078;0.2192294;0.1217791;0.005197078;0.1850797;0.09677442;0.4012805;5.276706;3.461571;0.2637978;2.452932;1.576658;0;15;5.125
66;9.560669;11.56897;3;0.444458;4.974731;2.535929;0.06457293;0.1904883;0.142408;0.06457293;0.1537407;0.1116147;1.267949;4.474946;3.164026;0.4692732;2.008704;1.450449;0;15;8
67;11.88135;14.12463;3;0.8665771;6.496704;2.828491;0.1521372;0.182401;0.1639212;0.07695877;0.1530235;0.1100564;4.729786;4.789537;4.757676;1.996189;2.532389;2.227935;4;24;11.33333
68;5.750366;7.250122;2;1.255127;2.65564;1.955383;0.1682786;0.178208;0.1732433;0.118147;0.1379726;0.1280598;4.714398;5.13603;4.925214;2.159353;2.479251;2.319303;5;11;8
69;7.473145;9.103516;2;1.766968;4.199463;2.983215;0.1782045;0.2616256;0.219915;0.1185077;0.1714283;0.144968;5.057354;5.198497;5.127926;2.491562;2.753387;2.622475;8;16;12
70;10.24951;13.84656;3;0.06713867;4.542725;2.499512;0.03636074;0.2445498;0.1536202;0.02748023;0.1687023;0.10935;2.180127;5.252082;4.193137;1.09574;2.49658;1.924532;1;19;10.33333
71;6.038818;8.351196;3;0.2674561;3.309937;1.281901;0.04360327;0.1886927;0.1009674;0.03985403;0.1299901;0.07556394;2.536684;5.645439;3.919703;1.471069;2.51596;2.031638;1;15;6
