sep=;
trial;trialInteractionElapsedTime;trialElapsedTime;nrInteractions;minDuration;maxDuration;avgDuration;nrTimesBtnFullyCompressed;minMaxBtnCompression;maxMaxBtnCompression;avgMaxBtnCompression;minAvgBtnCompression;maxAvgBtnCompression;avgAvgBtnCompression;minMaxFingerInterpenetration;maxMaxFingerInterpenetration;avgMaxFingerInterpenetration;minAvgFingerInterpenetration;maxAvgFingerInterpenetration;avgAvgFingerInterpenetration;minNrOscilatios;maxNrOscilatios;avgNrOscilatios
0;31.65918;45.88779;6;1.200317;5.661774;2.901001;4;0.9717922;0.9999999;0.9950109;0.6882983;0.7582533;0.7203124;0.1497448;0.181217;0.1621608;0.1066267;0.1248381;0.1124748;1;16;4.5
1;18.29706;28.31372;3;1.108948;8.39679;3.546;2;0.9664485;0.9999999;0.9888161;0.6831232;0.7117808;0.6928546;0.1487878;0.1619399;0.1564899;0.1047241;0.1101547;0.106852;2;20;8
2;14.14594;16.65564;1;8.574707;8.574707;8.574707;1;0.9999999;0.9999999;0.9999999;0.7798281;0.7798281;0.7798281;0.1719842;0.1719842;0.1719842;0.1226919;0.1226919;0.1226919;8;8;8
3;13.61102;25.12933;3;1.098633;3.841675;2.19102;1;0.7845671;0.9999999;0.902649;0.5859419;0.6321171;0.6057387;0.1186374;0.1656337;0.1417164;0.09013575;0.09831063;0.09320708;2;5;4
4;17.98944;23.98682;5;1.097595;4.177917;2.548962;2;0.8447349;0.9999999;0.9462793;0.4838213;0.8081386;0.647833;0.1256516;0.1686348;0.148561;0.07448734;0.1279753;0.10039;1;9;4.8
5;10.62988;13.62921;1;6.998657;6.998657;6.998657;1;0.9999999;0.9999999;0.9999999;0.7232773;0.7232773;0.7232773;0.1635764;0.1635764;0.1635764;0.1128491;0.1128491;0.1128491;8;8;8
6;9.581116;12.81262;1;5.587708;5.587708;5.587708;1;0.9999999;0.9999999;0.9999999;0.8960319;0.8960319;0.8960319;0.1682383;0.1682383;0.1682383;0.1444619;0.1444619;0.1444619;2;2;2
7;14.43469;22.58606;2;4.309692;4.762268;4.53598;1;0.9783368;0.9999999;0.9891683;0.6620771;0.7687885;0.7154328;0.1505827;0.1586518;0.1546172;0.1021046;0.1190567;0.1105807;2;4;3
8;7.673157;10.10284;1;4.897461;4.897461;4.897461;1;0.9999999;0.9999999;0.9999999;0.8478799;0.8478799;0.8478799;0.1682184;0.1682184;0.1682184;0.1329215;0.1329215;0.1329215;2;2;2
9;19.82324;24.03107;3;1.329773;11.92456;4.932983;2;0.9880114;0.9999999;0.9960037;0.6795672;0.8020363;0.7311294;0.1523473;0.1839904;0.1662523;0.1053173;0.127879;0.1141849;1;11;4.666667
10;7.79248;11.00189;1;4.731567;4.731567;4.731567;1;0.9999999;0.9999999;0.9999999;0.8094756;0.8094756;0.8094756;0.1689867;0.1689867;0.1689867;0.1310156;0.1310156;0.1310156;2;2;2
11;7.817749;10.13983;1;5.365906;5.365906;5.365906;1;0.9999999;0.9999999;0.9999999;0.696686;0.696686;0.696686;0.1605778;0.1605778;0.1605778;0.1075543;0.1075543;0.1075543;6;6;6
12;10.5119;14.24628;1;6.910034;6.910034;6.910034;1;0.9999999;0.9999999;0.9999999;0.7201841;0.7201841;0.7201841;0.162197;0.162197;0.162197;0.1113273;0.1113273;0.1113273;8;8;8
13;10.63776;13.86755;2;1.567139;4.309021;2.93808;1;0.8856735;0.9999999;0.9428367;0.6458721;0.8753977;0.7606349;0.1375345;0.1665122;0.1520233;0.1001295;0.1413428;0.1207361;2;4;3
14;12.71472;17.12408;2;1.555115;7.297974;4.426544;1;0.952519;0.9999999;0.9762595;0.624257;0.6364483;0.6303526;0.1467189;0.1580953;0.1524071;0.09610245;0.09823877;0.09717061;2;8;5
15;12.01196;14.05676;2;0.02130127;7.795837;3.908569;1;0;0.9999999;0.5;0;0.6684319;0.334216;0;0.1653091;0.08265457;0;0.1042383;0.05211913;0;16;8
16;7.203918;9.44696;1;4.787964;4.787964;4.787964;1;0.9999999;0.9999999;0.9999999;0.7243544;0.7243544;0.7243544;0.1665228;0.1665228;0.1665228;0.113123;0.113123;0.113123;5;5;5
17;8.683777;10.9693;1;4.773376;4.773376;4.773376;1;0.9999999;0.9999999;0.9999999;0.5435788;0.5435788;0.5435788;0.164289;0.164289;0.164289;0.08420321;0.08420321;0.08420321;5;5;5
54;28.31104;31.02124;6;0.930542;4.109863;2.286885;5;0.9999267;0.9999999;0.9999877;0.636797;0.7656925;0.7013302;0.1559625;0.1935865;0.1753474;0.09759599;0.1216535;0.1112563;2;10;4.666667
55;8.082153;11.64514;1;5.919678;5.919678;5.919678;1;0.9999999;0.9999999;0.9999999;0.8490437;0.8490437;0.8490437;0.1883086;0.1883086;0.1883086;0.1375607;0.1375607;0.1375607;16;16;16
56;9.228271;12.89355;1;6.783813;6.783813;6.783813;1;0.9999998;0.9999998;0.9999998;0.774743;0.774743;0.774743;0.157986;0.157986;0.157986;0.1196046;0.1196046;0.1196046;2;2;2
57;11.51416;13.60022;1;8.949097;8.949097;8.949097;0;0.9996195;0.9996195;0.9996195;0.6177423;0.6177423;0.6177423;0.1528441;0.1528441;0.1528441;0.0955401;0.0955401;0.0955401;32;32;32
58;5.840698;8.161255;1;3.786621;3.786621;3.786621;0;0.9999943;0.9999943;0.9999943;0.5940969;0.5940969;0.5940969;0.157325;0.157325;0.157325;0.09159497;0.09159497;0.09159497;12;12;12
59;7.361572;10.34875;1;4.719727;4.719727;4.719727;1;0.9999999;0.9999999;0.9999999;0.6280764;0.6280764;0.6280764;0.1762388;0.1762388;0.1762388;0.09845445;0.09845445;0.09845445;14;14;14
60;11.28015;13.41211;1;8.073975;8.073975;8.073975;1;0.9999999;0.9999999;0.9999999;0.7141418;0.7141418;0.7141418;0.1804023;0.1804023;0.1804023;0.1128359;0.1128359;0.1128359;26;26;26
61;8.236938;10.91455;1;5.839722;5.839722;5.839722;0;0.9993795;0.9993795;0.9993795;0.5351082;0.5351082;0.5351082;0.1505851;0.1505851;0.1505851;0.08253676;0.08253676;0.08253676;21;21;21
62;7.915039;11.19324;1;5.464233;5.464233;5.464233;0;0.8799335;0.8799335;0.8799335;0.4546121;0.4546121;0.4546121;0.1266979;0.1266979;0.1266979;0.06995627;0.06995627;0.06995627;17;17;17
63;9.347656;13.37781;1;6.466675;6.466675;6.466675;0;0.8757195;0.8757195;0.8757195;0.4163757;0.4163757;0.4163757;0.1274665;0.1274665;0.1274665;0.06413644;0.06413644;0.06413644;22;22;22
64;43.67944;47.66492;10;0.3106689;3.721191;0.8684204;0;0.2556697;0.7328057;0.4646659;0.1207791;0.4171621;0.2358167;0.03165304;0.1034979;0.06098591;0.01650854;0.06412221;0.03484282;1;14;3.6
65;12.55933;15.45789;11;0.3769531;1.110596;0.5133833;0;0.4094257;0.7115387;0.5817752;0.2074179;0.3495036;0.2930618;0.06144776;0.08668184;0.07482867;0.03073638;0.0522677;0.04381037;1;3;2
66;14.44666;17.4884;8;0.6859131;2.165649;1.054581;0;0.5845392;0.9674586;0.801614;0.3266634;0.587954;0.4526156;0.08965562;0.1462528;0.120565;0.04994999;0.08970684;0.069195;2;4;2.5
67;9.314941;14.0249;1;6.430054;6.430054;6.430054;0;0.904832;0.904832;0.904832;0.4776179;0.4776179;0.4776179;0.1359981;0.1359981;0.1359981;0.07359295;0.07359295;0.07359295;20;20;20
68;25.17249;30.07239;2;0.02099609;4.231812;2.126404;0;0;0.9199379;0.459969;0;0.5097545;0.2548772;0;0.1279359;0.06396797;0;0.07835253;0.03917626;0;16;8
69;8.714355;10.80151;1;5.809814;5.809814;5.809814;0;0.9336088;0.9336088;0.9336088;0.5282807;0.5282807;0.5282807;0.1371045;0.1371045;0.1371045;0.08125742;0.08125742;0.08125742;20;20;20
70;9.103516;11.63647;1;6.664307;6.664307;6.664307;0;0.9644824;0.9644824;0.9644824;0.474312;0.474312;0.474312;0.1395528;0.1395528;0.1395528;0.07306802;0.07306802;0.07306802;18;18;18
71;8.501831;10.45898;1;6.184814;6.184814;6.184814;0;0.9983081;0.9983081;0.9983081;0.604522;0.604522;0.604522;0.146982;0.146982;0.146982;0.09314305;0.09314305;0.09314305;18;18;18
