sep=;
trial;trialInteractionElapsedTime;trialElapsedTime;nrInteractions;minDuration;maxDuration;avgDuration;nrTimesBtnFullyCompressed;minMaxBtnCompression;maxMaxBtnCompression;avgMaxBtnCompression;minAvgBtnCompression;maxAvgBtnCompression;avgAvgBtnCompression;minMaxFingerInterpenetration;maxMaxFingerInterpenetration;avgMaxFingerInterpenetration;minAvgFingerInterpenetration;maxAvgFingerInterpenetration;avgAvgFingerInterpenetration;minNrOscilatios;maxNrOscilatios;avgNrOscilatios
18;18.12524;20.48853;10;0.1550293;1.865234;1.173523;7;0.13897;0.9999999;0.8179295;0.07471406;0.7482597;0.5311735;0.01710318;0.1879338;0.1440532;0.01054716;0.1197839;0.08553226;1;3;2
19;19.96802;22.0332;11;1.033081;1.665405;1.274925;8;0.7957309;0.9999999;0.9785681;0.5113055;0.7433891;0.6740029;0.1215355;0.1853273;0.1590338;0.07829618;0.1162877;0.104955;1;4;2.363636
20;16.96899;18.71265;8;0.34729;2.099976;1.444992;3;0.5811272;0.9999999;0.9376112;0.3398235;0.7549422;0.6582813;0.08838245;0.1621381;0.1462966;0.0630592;0.1159679;0.1028491;1;6;2.125
21;14.14331;16.24536;6;1.401123;2.188232;1.7441;6;0.9999999;0.9999999;0.9999999;0.7388496;0.7903355;0.7663779;0.1566874;0.17495;0.1643076;0.1146878;0.1276811;0.1199742;1;4;3
22;9.800903;12.43152;4;1.64624;1.885254;1.74057;4;0.9999999;0.9999999;0.9999999;0.6840307;0.7628642;0.7288486;0.1562447;0.1742293;0.1663031;0.1074464;0.1225394;0.1146658;1;4;3
23;20.89075;22.59058;7;1.308472;6.552246;2.29126;4;0.9539348;0.9999999;0.9913493;0.5333744;0.7168834;0.6690481;0.1470044;0.16994;0.1580664;0.08231574;0.1140306;0.1039135;2;3;2.142857
24;22.00952;23.48645;4;4.30896;5.142456;4.670959;1;0.9751165;0.9999999;0.9867468;0.6048641;0.7086312;0.6589868;0.1493075;0.1618958;0.1537146;0.09331882;0.1093286;0.1018452;2;2;2
25;8.447754;11.05627;2;2.201538;4.199463;3.2005;0;0.9667186;0.9956399;0.9811792;0.6623011;0.7013856;0.6818433;0.1489973;0.1532432;0.1511202;0.102162;0.1081849;0.1051734;1;3;2
26;13.62585;16.36865;3;2.931641;4.453003;3.439901;0;0.9805503;0.9999549;0.9901258;0.6013213;0.6718162;0.6417735;0.1510618;0.1536761;0.1524338;0.09275577;0.1036388;0.09900454;2;2;2
27;20.04407;22.74304;5;2.932861;4.58667;3.338916;4;0.9868411;0.9999999;0.9973682;0.6416332;0.694218;0.6639029;0.1521071;0.1579174;0.1559863;0.09912027;0.1072963;0.1025289;1;3;2
28;27.66284;32.22681;10;0.05517578;3.953491;2.086853;7;2.980232E-07;0.9999999;0.8990588;7.450581E-08;0.6813655;0.5773118;0.0008084912;0.1669395;0.1430067;0.0003785477;0.1051982;0.08947158;0;3;1.8
29;13.34338;15.67822;4;2.210205;2.820435;2.441406;0;0.9669438;0.9978873;0.9865062;0.6247036;0.7054016;0.6684276;0.1486523;0.1540365;0.1520187;0.09634325;0.1087688;0.1030651;1;2;1.75
30;19.47693;21.04443;8;1.633179;2.020752;1.816513;7;0.9896291;0.9999999;0.9987036;0.628445;0.6904221;0.6518057;0.1516721;0.1791845;0.1661161;0.09783909;0.1085506;0.1021239;2;3;2.125
31;10.67773;12.3092;4;1.610474;2.123169;1.905548;3;0.9999385;0.9999999;0.9999846;0.6395915;0.670381;0.6602183;0.1538428;0.1671071;0.1587728;0.09854883;0.1043906;0.1022395;1;3;2
32;15.1272;16.80359;5;2.045898;2.556274;2.28335;4;0.98871;0.9999999;0.9977419;0.6362308;0.7099066;0.6821693;0.1517083;0.1682996;0.1607582;0.09833362;0.1109792;0.1059632;2;4;2.4
33;17.17883;19.62109;5;1.921753;5.076904;2.773169;5;0.9999999;0.9999999;0.9999999;0.576993;0.6857873;0.6326967;0.1748833;0.1810788;0.1777191;0.09179827;0.1102771;0.1010925;1;4;2.8
34;25.25281;27.13916;9;1.910767;2.488281;2.153849;8;0.9787003;0.9999999;0.9976333;0.6023304;0.7014037;0.663442;0.1503206;0.1848304;0.1640259;0.09486565;0.1118326;0.1035752;1;4;2.444444
35;23.76306;25.38489;11;1.400391;2.012207;1.625133;11;0.9999999;0.9999999;0.9999999;0.6580426;0.7064878;0.6787533;0.1624131;0.1730247;0.1674346;0.1030022;0.1120856;0.1065974;1;3;2
72;16.63428;18.75732;8;0.1765137;2.954102;1.400757;6;0.08229509;0.9999999;0.8836537;0.03743821;0.6633559;0.5540049;0.01468841;0.1778824;0.1480055;0.006981477;0.1052045;0.0869302;0;4;2.125
73;7.794434;9.571777;3;1.465088;2.165039;1.702311;2;0.6154571;0.9999999;0.871819;0.3144793;0.7298739;0.5473739;0.1434309;0.1795749;0.1665472;0.08041696;0.1188209;0.09804309;1;4;2.666667
74;10.38062;12.51392;3;2.010742;4.242432;2.901611;3;0.9999999;0.9999999;0.9999999;0.5127705;0.5842604;0.5500805;0.1688519;0.2142459;0.1892127;0.08024535;0.0940862;0.08879437;1;5;3
75;15.52246;17.37549;6;0.1323242;4.507568;1.973267;5;0.1939569;0.9999999;0.8656594;0.05075158;0.6609651;0.5045568;0.000733398;0.17871;0.1411883;0.0004200258;0.1035122;0.07802801;1;4;2.333333
76;12.62524;14.8894;4;1.777588;3.03125;2.299194;4;0.9999999;0.9999999;0.9999999;0.4666235;0.5829661;0.5223849;0.166616;0.2016521;0.1805399;0.07698981;0.09315794;0.08334127;1;5;2.5
77;6.051514;8.182129;2;2.154785;2.311523;2.233154;2;0.9999999;0.9999999;0.9999999;0.4920963;0.5333711;0.5127337;0.169262;0.173973;0.1716175;0.07687785;0.08434848;0.08061317;2;2;2
78;8.295166;10.0957;3;1.608887;2.223633;1.88444;3;0.9999999;0.9999999;0.9999999;0.5160885;0.6345288;0.5775209;0.1644097;0.1863078;0.1780229;0.08032522;0.102176;0.09168373;1;3;2
79;5.015381;6.894775;2;1.720703;1.832031;1.776367;2;0.9999999;0.9999999;0.9999999;0.5586609;0.6112319;0.5849464;0.1783842;0.1923977;0.1853909;0.09123446;0.09738353;0.09430899;1;2;1.5
80;25.75269;28.55225;7;1.833008;9.062988;3.25858;7;0.9999999;0.9999999;0.9999999;0.5282787;0.7243308;0.6044479;0.1615493;0.1749507;0.1692178;0.08298243;0.1160019;0.09524869;1;8;3.142857
81;5.383789;7.481689;2;1.543701;2.109375;1.826538;2;0.9999999;0.9999999;0.9999999;0.5082037;0.5768474;0.5425255;0.1602321;0.1703372;0.1652846;0.07873003;0.09046249;0.08459626;1;3;2
82;11.45801;13.37939;3;1.665283;5.941162;3.154134;3;0.9999999;0.9999999;0.9999999;0.5709178;0.6075552;0.5895402;0.1696385;0.1840793;0.1787863;0.08940494;0.09710218;0.09295792;2;5;3.333333
83;5.372314;6.871338;1;4.020752;4.020752;4.020752;1;0.9999999;0.9999999;0.9999999;0.5122755;0.5122755;0.5122755;0.1770805;0.1770805;0.1770805;0.08055788;0.08055788;0.08055788;5;5;5
84;10.94897;12.74585;4;1.576904;2.753662;2.092834;4;0.9999999;0.9999999;0.9999999;0.4280253;0.6029035;0.5457617;0.1776022;0.2014051;0.1904447;0.06772781;0.1011591;0.0890185;1;2;1.75
85;12.41626;14.18213;5;1.566895;2.166992;1.875049;5;0.9999999;0.9999999;0.9999999;0.4736805;0.61427;0.5668711;0.1615187;0.1900784;0.1793016;0.07649988;0.10106;0.09091724;2;3;2.2
86;9.546631;11.28979;4;1.644775;1.831543;1.744019;4;0.9999999;0.9999999;0.9999999;0.5387139;0.6058499;0.5724038;0.1586993;0.1825932;0.1710838;0.08435445;0.09597696;0.09034377;2;3;2.5
87;16.01001;18.11011;3;2.245117;6.663818;4.549561;3;0.9999999;0.9999999;0.9999999;0.5274892;0.7836872;0.6299689;0.1621038;0.1725828;0.1672929;0.08172461;0.1220138;0.09789991;1;5;2.666667
88;25.54346;28.01904;7;1.545898;6.951904;3.018938;6;0.9824735;0.9999999;0.9974962;0.5070552;0.6382205;0.5698159;0.1513129;0.1739329;0.1642099;0.07842715;0.1004395;0.08899638;1;4;2.285714
89;13.69238;15.44604;5;1.632324;2.574463;2.004785;4;0.9095205;0.9999999;0.981904;0.5623972;0.646875;0.5885997;0.1389165;0.1693489;0.1584078;0.08848511;0.09990343;0.09260348;1;5;2.8
