sep=;
trial;trialInteractionElapsedTime;trialElapsedTime;nrInteractions;minDuration;maxDuration;avgDuration;minMaxFingerDisplacement;maxMaxFingerDisplacement;avgMaxFingerDisplacement;minAvgFingerDisplacement;maxAvgFingerDisplacement;avgAvgFingerDisplacement;minMaxSpeed;maxMaxSpeed;avgMaxSpeed;minAvgSpeed;maxAvgSpeed;avgAvgSpeed;minNrOscilatios;maxNrOscilatios;avgNrOscilatios
0;0;0;3;2.931641;3.854248;3.513509;0.188729;0.2040392;0.1985138;0.1136882;0.1446102;0.1258277;1.976754;2.528769;2.218455;0.7731688;1.010082;0.9118563;5;7;6
1;0;0;4;0.02172852;5.009277;3.506531;0.02137387;0.203263;0.1544901;0.02137387;0.1737317;0.1175931;2.113092;2.51816;2.322012;0.8116567;2.400105;1.305268;0;7;5
2;0;0;13;0.7216797;8.331055;2.438552;0.07334781;0.2178823;0.1367446;0.04804163;0.166734;0.09834091;0.6171207;2.185814;1.504833;0.3032192;1.186454;0.8057449;1;8;3.384615
3;0;0;13;0.05541992;8.748291;2.873779;0.0138326;0.2184771;0.1701851;0.0138326;0.1726947;0.1152088;1.292022;4.078179;2.130804;0.649991;1.429141;0.8718995;0;12;4
4;0;0;18;0.01123047;11.48315;3.067383;0.002723753;0.2284496;0.1288802;0.002723753;0.1987967;0.09632212;0;4.035403;1.782938;0;1.368178;0.8032981;0;12;3.833333
5;0;0;4;2.689209;6.543945;3.768799;0.1634582;0.1917098;0.1780414;0.09989812;0.1570489;0.1303589;1.141248;2.904988;1.713504;0.5652285;0.8235675;0.692032;4;8;5.5
