sep=;
trial;trialInteractionElapsedTime;trialElapsedTime;nrInteractions;minDuration;maxDuration;avgDuration;minMaxFingerDisplacement;maxMaxFingerDisplacement;avgMaxFingerDisplacement;minAvgFingerDisplacement;maxAvgFingerDisplacement;avgAvgFingerDisplacement;minMaxSpeed;maxMaxSpeed;avgMaxSpeed;minAvgSpeed;maxAvgSpeed;avgAvgSpeed;minNrOscilatios;maxNrOscilatios;avgNrOscilatios
36;20.10522;22.72351;3;1.731323;8.484741;5.561401;0.09785652;0.123678;0.1087588;0.05356022;0.08085296;0.06790653;2.381361;2.548557;2.446379;0.8316659;0.9758146;0.8863628;4;30;17.33333
37;19.52551;22.04382;3;1.864868;7.796387;5.589803;0.1049132;0.1203113;0.1103751;0.04532692;0.08601895;0.06552102;1.429828;2.863084;2.075152;0.6839679;0.9430369;0.7956874;3;28;17
38;15.18018;16.99072;1;13.52881;13.52881;13.52881;0.1812881;0.1812881;0.1812881;0.09462711;0.09462711;0.09462711;2.360255;2.360255;2.360255;1.059377;1.059377;1.059377;37;37;37
39;11.08276;13.11243;1;9.440674;9.440674;9.440674;0.2126736;0.2126736;0.2126736;0.0963002;0.0963002;0.0963002;2.279171;2.279171;2.279171;1.152636;1.152636;1.152636;28;28;28
40;11.90308;14.41309;1;8.563477;8.563477;8.563477;0.1783555;0.1783555;0.1783555;0.1511729;0.1511729;0.1511729;2.237596;2.237596;2.237596;0.9573771;0.9573771;0.9573771;13;13;13
41;5.583862;8.248047;1;4.898804;4.898804;4.898804;0.2248901;0.2248901;0.2248901;0.1098947;0.1098947;0.1098947;3.370761;3.370761;3.370761;1.275446;1.275446;1.275446;14;14;14
42;11.33606;12.91235;1;9.919189;9.919189;9.919189;0.2052494;0.2052494;0.2052494;0.1377082;0.1377082;0.1377082;3.123395;3.123395;3.123395;1.251812;1.251812;1.251812;22;22;22
43;4.38562;6.3927;1;3.289185;3.289185;3.289185;0.176392;0.176392;0.176392;0.127402;0.127402;0.127402;2.30731;2.30731;2.30731;1.155102;1.155102;1.155102;7;7;7
44;11.38245;13.71399;1;10.69775;10.69775;10.69775;0.1822895;0.1822895;0.1822895;0.1248599;0.1248599;0.1248599;2.471841;2.471841;2.471841;0.9576594;0.9576594;0.9576594;19;19;19
45;4.196045;6.137085;1;3.121338;3.121338;3.121338;0.1624644;0.1624644;0.1624644;0.1430527;0.1430527;0.1430527;3.449815;3.449815;3.449815;1.195821;1.195821;1.195821;6;6;6
46;8.227905;10.13733;1;7.354492;7.354492;7.354492;0.1814211;0.1814211;0.1814211;0.1340172;0.1340172;0.1340172;2.423136;2.423136;2.423136;0.8659378;0.8659378;0.8659378;10;10;10
47;21.73535;24.34424;1;20.68091;20.68091;20.68091;0.1917022;0.1917022;0.1917022;0.150408;0.150408;0.150408;2.544359;2.544359;2.544359;1.037974;1.037974;1.037974;36;36;36
48;9.225342;11.2345;1;8.664673;8.664673;8.664673;0.1793755;0.1793755;0.1793755;0.1467885;0.1467885;0.1467885;2.038842;2.038842;2.038842;0.9476454;0.9476454;0.9476454;13;13;13
49;6.050293;8.437012;1;4.963379;4.963379;4.963379;0.1838007;0.1838007;0.1838007;0.1277325;0.1277325;0.1277325;2.380636;2.380636;2.380636;1.08935;1.08935;1.08935;10;10;10
50;24.06604;26.23132;1;22.94629;22.94629;22.94629;0.2468374;0.2468374;0.2468374;0.1573219;0.1573219;0.1573219;2.290314;2.290314;2.290314;0.9388152;0.9388152;0.9388152;35;35;35
51;10.68018;12.16919;1;9.886719;9.886719;9.886719;0.1776329;0.1776329;0.1776329;0.1453291;0.1453291;0.1453291;2.034848;2.034848;2.034848;0.902036;0.902036;0.902036;15;15;15
52;17.65576;19.54333;1;16.7356;16.7356;16.7356;0.2089236;0.2089236;0.2089236;0.1745156;0.1745156;0.1745156;2.25772;2.25772;2.25772;0.996957;0.996957;0.996957;24;24;24
53;16.11377;18.07947;2;3.876343;10.72876;7.302551;0.2150612;0.2658006;0.2404309;0.1619861;0.1916812;0.1768337;2.175915;2.366719;2.271317;1.088638;1.144068;1.116353;6;15;10.5
90;7.731689;9.474121;2;2.066895;3.720703;2.893799;0.137473;0.1739784;0.1557257;0.08729322;0.122232;0.1047626;2.556467;3.101662;2.829064;1.17714;1.229667;1.203403;6;8;7
91;12.78149;14.87939;2;5.19751;6.141602;5.669556;0.1249952;0.1545007;0.1397479;0.08806756;0.09578294;0.09192525;2.582006;3.210457;2.896231;0.4269934;1.193728;0.8103606;5;19;12
92;22.58667;24.55396;2;8.308838;12.08154;10.19519;0.1798376;0.1954784;0.187658;0.133583;0.1488763;0.1412297;2.048388;3.742806;2.895597;0.6159482;1.077249;0.8465984;13;15;14
93;24.5752;26.41919;2;8.873291;11.44873;10.16101;0.1871561;0.1885275;0.1878418;0.1136341;0.152354;0.132994;1.927226;3.079919;2.503572;0.9799713;1.103489;1.04173;16;26;21
94;20.10938;21.89478;2;8.919922;9.641602;9.280762;0.2003507;0.202623;0.2014868;0.1264272;0.1425513;0.1344892;2.275413;2.630482;2.452948;1.070629;1.170413;1.120521;18;20;19
95;15.02466;16.80225;2;4.600342;8.829102;6.714722;0.1796574;0.246605;0.2131312;0.14437;0.1524788;0.1484244;2.498575;3.050901;2.774738;1.325507;1.427149;1.376328;9;21;15
96;4.984375;6.927246;2;1.699951;1.83252;1.766235;0.18184;0.2430091;0.2124245;0.130062;0.1418472;0.1359546;2.371066;3.625165;2.998116;1.308925;1.573275;1.4411;4;4;4
97;17.77808;19.55347;6;0.1777344;6.022217;2.667643;0.03424811;0.2097695;0.1738481;0.03424811;0.1709748;0.1316753;1.443679;3.521629;2.796003;1.190339;1.862798;1.51218;0;12;5.666667
98;12.02661;14.54565;1;6.053467;6.053467;6.053467;0.1735671;0.1735671;0.1735671;0.130454;0.130454;0.130454;2.463183;2.463183;2.463183;1.133489;1.133489;1.133489;15;15;15
99;20.55469;22.16553;1;19.44922;19.44922;19.44922;0.198127;0.198127;0.198127;0.1365157;0.1365157;0.1365157;2.687157;2.687157;2.687157;0.9990445;0.9990445;0.9990445;40;40;40
100;15.5459;17.41162;1;14.15186;14.15186;14.15186;0.1814518;0.1814518;0.1814518;0.1287839;0.1287839;0.1287839;2.322809;2.322809;2.322809;0.6428854;0.6428854;0.6428854;20;20;20
101;19.48779;21.44336;2;7.885254;9.853516;8.869385;0.186707;0.1972021;0.1919546;0.1546123;0.1620529;0.1583326;2.469597;2.48789;2.478744;0.8041613;0.865027;0.8345941;11;14;12.5
102;8.993896;10.96948;3;0.4216309;6.661621;2.746745;0.160926;0.2086303;0.1843108;0.09306005;0.1755954;0.1310096;2.274943;2.618333;2.404648;0.8902774;1.531914;1.174961;1;9;4
103;17.96777;19.76465;1;17.48169;17.48169;17.48169;0.2008284;0.2008284;0.2008284;0.1313955;0.1313955;0.1313955;3.636177;3.636177;3.636177;0.7529588;0.7529588;0.7529588;27;27;27
104;7.705811;10.29517;1;6.12207;6.12207;6.12207;0.2093806;0.2093806;0.2093806;0.1735873;0.1735873;0.1735873;2.691055;2.691055;2.691055;1.065298;1.065298;1.065298;10;10;10
105;5.738281;7.579834;1;4.797119;4.797119;4.797119;0.2264761;0.2264761;0.2264761;0.1665957;0.1665957;0.1665957;3.585291;3.585291;3.585291;1.15967;1.15967;1.15967;8;8;8
106;14.07202;16.11499;1;13.27417;13.27417;13.27417;0.1999812;0.1999812;0.1999812;0.1704855;0.1704855;0.1704855;3.147847;3.147847;3.147847;1.062244;1.062244;1.062244;23;23;23
107;7.103516;8.736328;2;2.843994;3.365234;3.104614;0.199755;0.2094842;0.2046196;0.1012698;0.1325233;0.1168966;2.845893;2.942446;2.894169;0.9385963;1.526201;1.232399;6;10;8
