user name: 16
folder: C:\repos\unity\ferran\ManusSteamVR\HandInteractions\Build\exp2\exp_results
block order: 1 = 2_BlockOrder Slide-Tap-Press 2-0-1
session start: 2022-04-13_14-32-14
session end: 2022-04-13_15-24-42
calibration durations: 474.2125;221.7612;
