user name: 1
folder: C:\repos\unity\ferran\ManusSteamVR\HandInteractions\Build\exp2\exp_results
block order: 0 = 1_BlockOrder Tap-Press-Slide 0-1-2
session start: 2021-12-21_11-16-36
session end: 2021-12-21_11-58-36
calibration durations: 495.7965;361.3541;
