sep=;
trial;trialInteractionElapsedTime;trialElapsedTime;nrInteractions;minDuration;maxDuration;avgDuration;nrTimesBtnFullyCompressed;minMaxBtnCompression;maxMaxBtnCompression;avgMaxBtnCompression;minAvgBtnCompression;maxAvgBtnCompression;avgAvgBtnCompression;minMaxFingerInterpenetration;maxMaxFingerInterpenetration;avgMaxFingerInterpenetration;minAvgFingerInterpenetration;maxAvgFingerInterpenetration;avgAvgFingerInterpenetration;minNrOscilatios;maxNrOscilatios;avgNrOscilatios
18;12.06232;15.48096;7;0.199707;1.710266;0.9549037;0;0.1103665;0.5187374;0.3719846;0.05227013;0.405347;0.2458823;0.01461824;0.07967104;0.05541349;0.008179792;0.06228985;0.03730256;0;3;1.571429
19;5.862305;10.67133;3;0.9091797;1.177368;1.02537;0;0.3859099;0.4457708;0.4107329;0.2343466;0.3060432;0.266897;0.05838828;0.06832004;0.06260814;0.0356843;0.0470589;0.04089456;1;3;2
20;8.549622;11.89221;3;0.7553711;4.297791;1.939718;0;0.3462546;0.4580877;0.3906399;0.193641;0.3570057;0.2532969;0.04995876;0.07037315;0.0577868;0.02954349;0.05496548;0.03878033;1;4;2.666667
21;12.98096;17.25769;7;0.7662964;1.465698;1.209978;0;0.1977139;0.4772939;0.4040627;0.1018984;0.3224175;0.2599632;0.02854576;0.07281455;0.06152062;0.01546407;0.04951933;0.03989099;1;3;1.857143
22;9.224854;14.92279;4;0.8546143;1.886475;1.306854;0;0.3526469;0.4426795;0.4046124;0.2174805;0.3319111;0.2791175;0.05314105;0.06742224;0.06183252;0.03309494;0.05114106;0.04279438;2;2;2
23;9.30365;11.51373;5;0.8775635;1.466614;1.206213;0;0.3206286;0.4766971;0.4075691;0.2045058;0.3376577;0.2771452;0.04873302;0.07341617;0.06253123;0.03096107;0.05186649;0.04247821;2;2;2
24;6.669556;14.05792;3;1.131409;1.895996;1.475464;0;0.4187985;0.4606987;0.4439078;0.2684498;0.3418281;0.3037629;0.06415451;0.07024129;0.06806982;0.04106173;0.05261687;0.04663442;1;5;3
25;5.526245;7.772217;2;1.209839;1.611938;1.410889;0;0.3197359;0.4496702;0.384703;0.2120844;0.308342;0.2602131;0.04916627;0.06927448;0.05922037;0.03234029;0.04744357;0.03989193;0;2;1
26;10.51459;13.02271;5;0.9904785;2.587097;1.46134;0;0.3380624;0.4638713;0.3952146;0.2025651;0.309666;0.2594655;0.0515217;0.07125993;0.06031148;0.03093902;0.04748746;0.03978661;0;2;1.2
27;8.826477;10.80139;4;1.110718;1.7005;1.48584;0;0.2934045;0.4242458;0.3719104;0.1735872;0.2891091;0.25044;0.04480501;0.06525034;0.05716385;0.02645807;0.04447806;0.03843649;0;2;1.5
28;14.02594;21.16815;4;1.166321;3.877747;2.439255;0;0.3462656;0.704729;0.5975689;0.1933304;0.5122162;0.4047791;0.05229979;0.108452;0.09158501;0.02947422;0.07893278;0.06225612;2;3;2.5
29;14.21338;20.64362;4;1.465515;3.742554;2.298553;0;0.4429959;0.5464985;0.487697;0.2807088;0.3750936;0.3283303;0.067906;0.08432557;0.07500095;0.04314752;0.05786401;0.05052725;1;4;2.5
30;8.293457;13.65729;4;0.8773193;2.356628;1.34906;0;0.3392807;0.4937892;0.4402484;0.1919247;0.3419794;0.2787329;0.05084087;0.07595694;0.0670285;0.02939111;0.05267428;0.04269457;0;2;1.5
31;9.68158;12.13446;4;0.8651123;2.400146;1.544388;0;0.1946799;0.5474355;0.3832062;0.1140975;0.4066685;0.2513038;0.02955564;0.08397723;0.05869476;0.01721852;0.0626125;0.03852726;0;2;1.5
32;4.763306;10.98267;2;1.188721;1.255371;1.222046;0;0.4037108;0.4848672;0.444289;0.2554306;0.3471437;0.3012871;0.0616543;0.07416079;0.06790754;0.03909438;0.05312811;0.04611124;1;3;2
33;13.73523;17.3999;6;0.644165;2.355347;1.565959;0;0.1701424;0.5270972;0.381707;0.09291469;0.3594197;0.244131;0.02432646;0.08143733;0.05798762;0.01401562;0.05536273;0.03748011;0;3;1.666667
34;10.50598;13.21545;4;1.377563;1.975952;1.804047;0;0.4487814;0.5935336;0.5526651;0.271134;0.4437508;0.3825647;0.06884851;0.09132718;0.0851137;0.04146183;0.06816342;0.05878751;2;4;3
35;3.735962;5.812744;1;1.464966;1.464966;1.464966;0;0.4478568;0.4478568;0.4478568;0.2666703;0.2666703;0.2666703;0.06750569;0.06750569;0.06750569;0.04090612;0.04090612;0.04090612;3;3;3
72;7.397705;9.185059;5;0.1334229;1.177612;0.7196777;0;0.09040684;0.3764367;0.2927826;0.04612091;0.2815987;0.1879268;0.0165311;0.05819213;0.0445678;0.008266342;0.04292499;0.02871363;0;2;1.4
73;3.869751;6.02832;2;0.9434814;1.165894;1.054688;0;0.4030269;0.410675;0.406851;0.2497883;0.293584;0.2716862;0.06143264;0.06320877;0.06232071;0.03810199;0.04483841;0.0414702;1;3;2
74;13.54651;15.33386;8;0.9094238;1.854614;1.224396;0;0.3358525;0.4677037;0.4365669;0.1918914;0.3667105;0.3024758;0.0511338;0.07191151;0.06692287;0.02906581;0.05634068;0.0462658;1;3;2
75;5.317139;7.07251;3;0.9868164;1.611206;1.214396;0;0.4446252;0.5356088;0.4752191;0.2626293;0.4016156;0.3146662;0.06691225;0.08234156;0.07230182;0.04014235;0.06172043;0.04824674;1;3;2
76;7.804565;10.03662;3;1.077271;1.712158;1.488119;0;0.4295582;0.5279887;0.4843102;0.259964;0.3842575;0.3320584;0.06488197;0.0816322;0.07419068;0.03983033;0.05909673;0.0509993;1;3;2
77;12.61389;15.10132;6;1.001831;2.865967;1.644185;0;0.3819758;0.5364474;0.4616361;0.2132855;0.4100302;0.3065624;0.05715153;0.08248644;0.07045276;0.03263564;0.06318296;0.04710882;1;4;2.5
78;7.281738;10.52344;3;1.532227;1.68811;1.621053;0;0.4144689;0.5326388;0.4802311;0.2422997;0.3785248;0.3118439;0.06388389;0.08192765;0.07381075;0.03721439;0.05818858;0.04793311;1;3;2
79;4.45166;11.47095;2;1.209229;1.256958;1.233093;0;0.3630972;0.488714;0.4259056;0.2047309;0.3292214;0.2669762;0.05508847;0.07490018;0.06499432;0.03134487;0.05045193;0.0408984;2;4;3
80;6.014404;8.034424;3;0.8441162;1.734009;1.236938;0;0.3946011;0.4623987;0.4218126;0.2458082;0.3608751;0.2920867;0.06104973;0.07077032;0.06467241;0.03761008;0.05541315;0.04468695;1;2;1.666667
81;12.46045;14.50391;6;0.7441406;2.054565;1.560343;0;0.4071243;0.4920759;0.4603502;0.2531005;0.3523449;0.3126522;0.06079585;0.07571293;0.07058308;0.03870185;0.05422244;0.04804675;1;3;2
82;4.51709;6.536987;2;1.310425;1.598999;1.454712;0;0.3854483;0.4789416;0.4321949;0.2493194;0.3402083;0.2947638;0.05894602;0.07396444;0.06645523;0.03817459;0.05228817;0.04523138;2;2;2
83;6.884033;8.75;4;0.9219971;1.310547;1.165894;0;0.3261892;0.4527448;0.4128568;0.1804101;0.303362;0.2578836;0.04881924;0.06947873;0.06324345;0.02739315;0.04648208;0.03946598;1;3;2.25
84;7.449097;9.31604;3;0.9876709;2.39856;1.735962;0;0.3630259;0.5588437;0.4578802;0.2245344;0.4284411;0.3279004;0.05551611;0.08596991;0.07043491;0.03434783;0.06592709;0.05037827;2;3;2.333333
85;4.727539;7.913696;2;1.200195;2.121826;1.661011;0;0.4270298;0.4953857;0.4612077;0.2652126;0.3911558;0.3281842;0.06501903;0.07631523;0.07066713;0.040609;0.06045229;0.05053065;2;2;2
86;8.729736;10.4729;3;1.321411;3.641968;2.376302;0;0.5022259;0.8530891;0.6788738;0.2960157;0.6513957;0.4736334;0.07678813;0.1307667;0.1042499;0.04543843;0.1003995;0.07290661;1;3;2
87;9.926147;12.04797;3;2.367065;2.942505;2.639486;0;0.7230327;0.7964571;0.757603;0.442638;0.5854075;0.5149859;0.1108151;0.1226018;0.1163705;0.06819095;0.09033003;0.07940418;1;5;2.666667
88;8.038086;10.32532;3;1.865967;2.28833;2.058675;0;0.7857997;0.8770049;0.8434619;0.4267654;0.5646607;0.5174094;0.1193832;0.1354051;0.1291406;0.0656424;0.08700282;0.07973903;1;3;2
89;4.861816;7.049683;3;0.0004882813;1.798218;1.1663;0;0;0.7776443;0.4699582;0;0.5604191;0.3138481;0;0.1192167;0.07194883;0;0.08662763;0.04840843;0;2;1.333333
