sep=;
trial;trialInteractionElapsedTime;trialElapsedTime;nrInteractions;minDuration;maxDuration;avgDuration;minAverageInterpenetration;maxAverageInterpenetration;avgAverageInterpenetration;minMaxInterpenetration;maxMaxInterpenetration;avgMaxInterpenetration;minVelocityAtContact;maxVelocityAtContact;avgVelocityAtContact
0;15.99445;31.06433;10;0.1555176;0.2445068;0.2061706;0.007854857;0.01943449;0.01323774;0.01263531;0.03379084;0.02369355;0.47096;0.6398255;0.5512892
1;12.3338;17.30865;13;0.1418457;0.3550415;0.2082238;0.002565254;0.02870039;0.01207295;0.006691846;0.04992105;0.0223867;0.3239363;0.7869126;0.5459421
2;9.536865;13.53491;7;0.1780396;0.2868652;0.2411848;0.009542684;0.01989142;0.01403635;0.01669832;0.03753814;0.02629543;0.4325895;0.6983542;0.5209444
3;17.62177;21.74396;12;0.1329346;0.2888184;0.2053782;0.005342146;0.0117409;0.008588072;0.009642469;0.02444731;0.01650622;0.2905345;0.7718206;0.507307
4;12.26886;16.52374;11;0.2124634;0.2999268;0.2626121;0.006237729;0.01405048;0.01040313;0.01074881;0.02757507;0.019337;0.3280776;0.4507705;0.3962545
5;13.7915;17.91077;12;0.197937;0.3551636;0.2670695;0.007989004;0.01661228;0.01232229;0.01561775;0.03272367;0.02357566;0.279495;0.5208873;0.422276
6;7.060425;9.446838;6;0.2218628;0.2666626;0.2375793;0.009441716;0.01312387;0.01103306;0.0186952;0.02516034;0.02110867;0.3756562;0.4636605;0.4155761
7;8.06134;11.51422;8;0.166748;0.3974609;0.2762222;0.005565609;0.02320574;0.01544718;0.009735798;0.04225175;0.02785829;0.3975049;0.6788699;0.523024
8;11.79315;14.34827;12;0.1553345;0.333313;0.2214559;0.006318054;0.01602888;0.01108527;0.01314096;0.03039012;0.02110883;0.4150433;0.6054798;0.5091527
9;7.625366;12.51154;7;0.1100464;0.2687988;0.1851719;0.002643323;0.01300513;0.008498508;0.007988475;0.0228066;0.01607068;0.4257071;0.7044829;0.5947378
10;12.23816;15.80396;7;0.1779785;0.2998657;0.2361276;0.007798807;0.01790599;0.01321837;0.01405446;0.0337485;0.02477686;0.3779095;0.6542439;0.5308945
11;8.880127;11.3797;9;0.177002;0.2783813;0.2086656;0.007842441;0.01663871;0.01201331;0.01455745;0.03167857;0.02247358;0.4560597;0.7761787;0.6675159
12;12.38007;15.29828;13;0.1767578;0.2880859;0.2158344;0.008466741;0.02082591;0.01453916;0.01462033;0.03749488;0.02657445;0.5465843;0.9015075;0.7511162
13;12.01733;14.19238;15;0.1551514;0.3847046;0.2151571;0.007348406;0.024149;0.01442342;0.01225455;0.04019624;0.02636421;0.3743584;0.9816369;0.7068254
14;10.81714;14.08246;15;0.111145;0.4411621;0.227006;0.007367093;0.02469699;0.01640859;0.01553313;0.0434363;0.03085742;0.3334232;0.8894324;0.6640571
15;9.369995;11.47955;12;0.1768799;0.2886353;0.2330678;0.01392669;0.02652673;0.02076304;0.0265044;0.04516174;0.03845764;0.4454025;0.9363076;0.6817962
16;7.060242;10.87146;9;0.1777344;0.2435913;0.214681;0.01043219;0.01788889;0.01430156;0.01854195;0.03289276;0.02691964;0.3759325;1.043612;0.6738054
17;6.483765;8.383118;8;0.1998291;0.3682251;0.2739258;0.009001136;0.02169411;0.01332736;0.01686581;0.04248772;0.02640735;0.1000006;0.7388256;0.423988
54;9.049316;13.12549;4;0.1989746;0.3006592;0.2303162;0.006496371;0.03313226;0.01739351;0.01339295;0.05476445;0.02995218;0.2697202;0.678077;0.535194
55;4.560547;6.371826;5;0.1796875;0.3792725;0.2448486;0.01120102;0.01439148;0.01254602;0.02105459;0.02776;0.0237626;0.4259928;1.183718;0.6878459
56;5.31604;7.258789;6;0.1777344;0.3555908;0.2533569;0.008647898;0.01914375;0.01337395;0.01350834;0.03142018;0.02170126;0.5742288;0.9227154;0.6877976
57;4.773438;6.615356;5;0.2442627;0.3548584;0.2931885;0.009538756;0.01928794;0.01588107;0.01737193;0.03050025;0.02596339;0.6999043;0.7416614;0.7278256
58;4.406982;6.029663;5;0.1455078;0.2442627;0.215625;0.005595519;0.01840556;0.01448785;0.01280117;0.03549292;0.02691014;0.6839479;0.8422397;0.7412605
59;4.538452;6.691284;7;0.1112061;0.1905518;0.1671317;0.006411789;0.01817795;0.01467569;0.01067761;0.03479179;0.02649093;0.6174607;0.9346259;0.7859102
60;5.95166;7.973511;4;0.1115723;0.2663574;0.2164917;0.0007778078;0.01893313;0.01344613;0.001919059;0.03462669;0.02335125;0.6781485;0.9274749;0.8120645
61;4.518066;7.892456;5;0.2199707;0.2679443;0.2510986;0.0171089;0.02740123;0.02070246;0.02791408;0.04407475;0.0355409;0.6133598;0.8606942;0.7246722
62;7.295898;10.15063;9;0.1448975;0.2009277;0.1774767;0.01031031;0.01802685;0.01368146;0.0187121;0.03594315;0.02606699;0.6706097;1.098528;0.8493304
63;3.116211;5.148682;4;0.1334229;0.1777344;0.1634827;0.01128061;0.01354794;0.01251967;0.02128921;0.02982396;0.02546052;0.7239287;1.091132;0.869755
64;3.485352;5.540527;3;0.199707;0.2541504;0.2253825;0.01158259;0.01998162;0.01603483;0.02219574;0.03756879;0.03060571;0.7067793;0.7841276;0.7376688
65;7.148193;9.425049;8;0.2001953;0.4085693;0.2706451;0.01075976;0.01796742;0.01440931;0.01794649;0.03418114;0.0264715;0.325287;0.7622702;0.5158147
66;8.147705;10.13647;12;0.1553955;0.3217773;0.2070007;0.006680907;0.02544796;0.01563484;0.0117497;0.04283116;0.02666108;0.3500971;1.538785;0.9191056
67;3.272705;5.304565;5;0.1550293;0.1774902;0.1665527;0.008716434;0.01892933;0.01441923;0.01788669;0.03907295;0.02832267;0.6991948;0.8906724;0.793577
68;8.74939;10.50317;11;0.1557617;0.2883301;0.2157759;0.01121907;0.02559239;0.01997533;0.02096443;0.04931861;0.03743364;0.5511419;0.8875275;0.7377338
69;6.527588;8.894287;10;0.1113281;0.2122803;0.1681274;0.008919249;0.01839547;0.01311638;0.01602269;0.0342102;0.02561692;0.562799;0.9780086;0.7945977
70;9.7229;11.46863;14;0.1105957;0.62146;0.2171021;0.01022523;0.02830311;0.01740848;0.02187693;0.03935269;0.03126016;0.6628467;1.14257;0.9426833
71;5.40625;7.538086;8;0.1549072;0.189209;0.1678162;0.009464297;0.02030013;0.0149399;0.01880999;0.04282848;0.03108873;0.7083651;0.9974403;0.824123
