sep=;
trial;trialInteractionElapsedTime;trialElapsedTime;nrInteractions;minDuration;maxDuration;avgDuration;minAverageInterpenetration;maxAverageInterpenetration;avgAverageInterpenetration;minMaxInterpenetration;maxMaxInterpenetration;avgMaxInterpenetration;minVelocityAtContact;maxVelocityAtContact;avgVelocityAtContact
0;0;0;36;0.1105957;0.720459;0.2192383;0.00250742;0.02296096;0.01106143;0.004821835;0.03623025;0.01958165;0.2585199;0.9244661;0.5448856
1;0;0;24;0.1008301;0.3115234;0.1949259;0.006554083;0.02290899;0.01164471;0.01018867;0.03927537;0.02104266;0.3096757;0.8113674;0.5445143
2;0;0;23;0.1105957;0.3999023;0.1984651;0.0001315526;0.02385048;0.01203129;0.0003215382;0.04215178;0.02194273;0.1698629;1.077235;0.5183269
3;0;0;44;0.154541;0.3322754;0.2207974;0.0008655282;0.02349002;0.01327898;0.001578668;0.04534598;0.02481901;0.03041107;1.094444;0.4678489
4;0;0;37;0.0004882813;0.3481445;0.20554;0;0.02992063;0.01660867;0;0.05473307;0.02725081;0.1504394;1.013569;0.5434227
5;0;0;10;0.1105957;0.2663574;0.1952148;0.008778832;0.02103057;0.01349291;0.01461388;0.03609368;0.02258622;0.3645713;0.8159028;0.5526053
