Block,TrialInBlock,Trial,Interaction,TactileFX,Question1,Completed,Attempts,Skipped,RespTime,Age,Gender
0,0,0,1,2,4,True,1,False,20.25641,24,Male
0,1,1,1,2,4,True,1,False,11.44025,24,Male
0,2,2,1,5,4,True,1,False,8.150513,24,Male
0,3,3,1,3,4,True,1,False,9.91629,24,Male
0,4,4,1,4,3,True,1,False,8.051453,24,Male
0,5,5,1,3,4,True,1,False,7.184296,24,Male
0,6,6,1,1,3,True,1,False,6.296295,24,Male
0,7,7,1,4,2,True,1,False,5.896637,24,Male
0,8,8,1,4,3,True,1,False,7.040894,24,Male
0,9,9,1,5,3,True,1,False,15.66971,24,Male
0,10,10,1,0,2,True,1,False,13.69232,24,Male
0,11,11,1,2,4,True,1,False,8.08606,24,Male
0,12,12,1,0,2,True,1,False,6.096619,24,Male
0,13,13,1,1,3,True,1,False,7.352112,24,Male
0,14,14,1,0,2,True,1,False,4.23114,24,Male
0,15,15,1,1,2,True,1,False,9.218323,24,Male
0,16,16,1,3,4,True,1,False,9.105957,24,Male
0,17,17,1,5,4,True,1,False,10.23865,24,Male
1,0,18,2,3,2,True,1,False,11.40576,24,Male
1,1,19,2,1,3,True,1,False,9.118958,24,Male
1,2,20,2,5,4,True,1,False,15.29474,24,Male
1,3,21,2,4,2,True,1,False,5.500366,24,Male
1,4,22,2,4,4,True,1,False,10.12885,24,Male
1,5,23,2,2,3,True,1,False,7.583435,24,Male
1,6,24,2,5,3,True,1,False,12.10614,24,Male
1,7,25,2,1,2,True,1,False,8.973755,24,Male
1,8,26,2,3,3,True,1,False,11.59351,24,Male
1,9,27,2,0,2,True,1,False,5.328918,24,Male
1,10,28,2,0,3,True,1,False,9.651367,24,Male
1,11,29,2,5,4,True,1,False,10.5744,24,Male
1,12,30,2,0,2,True,1,False,3.433472,24,Male
1,13,31,2,2,4,True,1,False,9.105591,24,Male
1,14,32,2,1,3,True,1,False,10.39484,24,Male
1,15,33,2,4,4,True,1,False,10.99738,24,Male
1,16,34,2,2,3,True,1,False,11.19556,24,Male
1,17,35,2,3,2,True,1,False,5.332764,24,Male
2,0,36,0,3,4,True,1,False,22.39056,24,Male
2,1,37,0,1,3,True,1,False,3.098083,24,Male
2,2,38,0,1,2,True,1,False,7.53949,24,Male
2,3,39,0,2,3,True,1,False,12.42853,24,Male
2,4,40,0,4,3,True,1,False,9.272766,24,Male
2,5,41,0,5,3,True,1,False,8.194824,24,Male
2,6,42,0,3,4,True,1,False,4.911011,24,Male
2,7,43,0,4,1,True,1,False,5.186646,24,Male
2,8,44,0,0,1,True,1,False,4.830566,24,Male
2,9,45,0,3,3,True,1,False,11.59467,24,Male
2,10,46,0,4,2,True,1,False,5.853516,24,Male
2,11,47,0,1,2,True,1,False,7.619751,24,Male
2,12,48,0,0,1,True,1,False,5.075012,24,Male
2,13,49,0,2,3,True,1,False,6.096252,24,Male
2,14,50,0,0,2,True,1,False,6.898987,24,Male
2,15,51,0,5,3,True,1,False,4.875061,24,Male
2,16,52,0,2,3,True,1,False,7.89386,24,Male
2,17,53,0,5,3,True,1,False,6.252441,24,Male
3,0,54,1,2,3,True,1,False,11.27234,24,Male
3,1,55,1,3,4,True,1,False,15.09204,24,Male
3,2,56,1,4,3,True,1,False,7.631104,24,Male
3,3,57,1,3,4,True,1,False,4.175293,24,Male
3,4,58,1,0,2,True,1,False,6.044556,24,Male
3,5,59,1,0,2,True,1,False,3.943237,24,Male
3,6,60,1,5,2,True,1,False,6.542725,24,Male
3,7,61,1,0,2,True,1,False,5.676025,24,Male
3,8,62,1,4,3,True,1,False,6.907837,24,Male
3,9,63,1,1,3,True,1,False,5.009521,24,Male
3,10,64,1,5,4,True,1,False,5.785645,24,Male
3,11,65,1,3,5,True,1,False,4.388428,24,Male
3,12,66,1,4,4,True,1,False,5.886597,24,Male
3,13,67,1,1,2,True,1,False,4.98584,24,Male
3,14,68,1,2,3,True,1,False,7.963989,24,Male
3,15,69,1,2,3,True,1,False,3.476196,24,Male
3,16,70,1,1,2,True,1,False,4.268188,24,Male
3,17,71,1,5,4,True,1,False,5.432373,24,Male
4,0,72,2,4,5,True,1,False,17.09192,24,Male
4,1,73,2,1,1,True,1,False,3.098511,24,Male
4,2,74,2,1,2,True,1,False,8.498291,24,Male
4,3,75,2,3,3,True,1,False,6.151733,24,Male
4,4,76,2,0,2,True,1,False,6.819336,24,Male
4,5,77,2,3,4,True,1,False,21.448,24,Male
4,6,78,2,1,2,True,1,False,7.230103,24,Male
4,7,79,2,2,4,True,1,False,7.985962,24,Male
4,8,80,2,5,3,True,1,False,10.36218,24,Male
4,9,81,2,0,2,True,1,False,4.664795,24,Male
4,10,82,2,2,3,True,1,False,15.79272,24,Male
4,11,83,2,3,2,True,1,False,6.276001,24,Male
4,12,84,2,4,2,True,1,False,5.188599,24,Male
4,13,85,2,5,3,True,1,False,8.16272,24,Male
4,14,86,2,2,3,True,1,False,9.550293,24,Male
4,15,87,2,0,2,True,1,False,2.58606,24,Male
4,16,88,2,5,4,True,1,False,5.743286,24,Male
4,17,89,2,4,3,True,1,False,4.165405,24,Male
5,0,90,0,3,3,True,1,False,7.551392,24,Male
5,1,91,0,4,2,True,1,False,4.987183,24,Male
5,2,92,0,0,1,True,1,False,2.245972,24,Male
5,3,93,0,5,2,True,1,False,12.03662,24,Male
5,4,94,0,5,2,True,1,False,8.507202,24,Male
5,5,95,0,2,1,True,1,False,4.519409,24,Male
5,6,96,0,1,3,True,1,False,6.49939,24,Male
5,7,97,0,2,2,True,1,False,7.653687,24,Male
5,8,98,0,0,1,True,1,False,7.17395,24,Male
5,9,99,0,1,3,True,1,False,6.053467,24,Male
5,10,100,0,0,1,True,1,False,3.054321,24,Male
5,11,101,0,4,3,True,1,False,6.638916,24,Male
5,12,102,0,1,3,True,1,False,6.44104,24,Male
5,13,103,0,5,2,True,1,False,8.952637,24,Male
5,14,104,0,2,1,True,1,False,6.393921,24,Male
5,15,105,0,4,1,True,1,False,7.863403,24,Male
5,16,106,0,3,3,True,1,False,3.853027,24,Male
5,17,107,0,3,2,True,1,False,6.929565,24,Male
