sep=;
trial;trialInteractionElapsedTime;trialElapsedTime;nrInteractions;minDuration;maxDuration;avgDuration;minAverageInterpenetration;maxAverageInterpenetration;avgAverageInterpenetration;minMaxInterpenetration;maxMaxInterpenetration;avgMaxInterpenetration;minVelocityAtContact;maxVelocityAtContact;avgVelocityAtContact
0;0;0;2;0.8874512;1.410156;1.148804;0.1326767;0.1425913;0.137634;0.2226633;0.2252921;0.2239777;0.5618531;0.6552585;0.6085558
1;0;0;2;0.7453613;1.23291;0.9891357;0.07132408;0.1461546;0.1087393;0.1124754;0.2294396;0.1709575;0.6580627;0.6736186;0.6658406
2;0;0;7;0.3447266;1.56543;0.9009138;0.04456632;0.1364651;0.1010954;0.07610854;0.2236908;0.167229;0.4494692;0.9865177;0.7444373
3;0;0;6;0.0222168;1.211182;0.8681234;0.007654213;0.155655;0.1076573;0.007654213;0.2205587;0.1693424;0.3253646;0.7990466;0.6478337
4;0;0;7;0.9885254;1.366699;1.150146;0.1022999;0.1494793;0.1306965;0.1767638;0.2337792;0.2134607;0.4727336;0.7545552;0.6130686
5;0;0;2;1.155273;1.378174;1.266724;0.1178276;0.1481026;0.1329651;0.1970957;0.2406116;0.2188537;0.4178932;0.7412363;0.5795648
