sep=;
trial;trialInteractionElapsedTime;trialElapsedTime;nrInteractions;minDuration;maxDuration;avgDuration;minMaxFingerDisplacement;maxMaxFingerDisplacement;avgMaxFingerDisplacement;minAvgFingerDisplacement;maxAvgFingerDisplacement;avgAvgFingerDisplacement;minMaxSpeed;maxMaxSpeed;avgMaxSpeed;minAvgSpeed;maxAvgSpeed;avgAvgSpeed;minNrOscilatios;maxNrOscilatios;avgNrOscilatios
18;11.41803;15.2796;1;8.902527;8.902527;8.902527;0.2131426;0.2131426;0.2131426;0.1763125;0.1763125;0.1763125;3.590536;3.590536;3.590536;1.522846;1.522846;1.522846;19;19;19
19;9.139526;10.92657;2;0.3103027;7.220337;3.76532;0.07270393;0.247852;0.1602779;0.07258335;0.1585052;0.1155443;1.765879;3.587238;2.676558;0.9024047;1.559991;1.231198;1;17;9
20;15.3158;17.64575;8;0.02197266;4.04364;1.649162;2.026558E-06;0.237951;0.122178;2.026558E-06;0.2342767;0.09186033;0.7034521;3.73525;2.112215;0.301351;1.760855;1.142816;0;9;3.5
21;5.519165;7.38269;1;2.332397;2.332397;2.332397;0.2021942;0.2021942;0.2021942;0.1908003;0.1908003;0.1908003;2.801292;2.801292;2.801292;1.268246;1.268246;1.268246;3;3;3
22;10.14948;12.03723;3;0.0003662109;6.54187;2.817851;9.065866E-05;0.2340412;0.1468201;9.065866E-05;0.108693;0.06967103;0;2.97332;1.510461;0;1.194382;0.6780176;0;18;7
23;7.592224;9.27063;1;5.873596;5.873596;5.873596;0.2237905;0.2237905;0.2237905;0.1489057;0.1489057;0.1489057;4.000579;4.000579;4.000579;1.561381;1.561381;1.561381;14;14;14
24;12.12579;14.25739;2;0.1092529;10.37457;5.241913;0.006573886;0.2183876;0.1124807;0.006573886;0.1812302;0.09390206;0.1691933;3.629002;1.899098;0.1039991;1.512812;0.8084058;0;22;11
25;8.983093;11.72516;1;7.819092;7.819092;7.819092;0.2141773;0.2141773;0.2141773;0.1666453;0.1666453;0.1666453;4.147056;4.147056;4.147056;1.40719;1.40719;1.40719;16;16;16
26;11.61487;13.80212;2;3.744141;5.896912;4.820526;0.1776805;0.1997041;0.1886923;0.1414584;0.1423169;0.1418876;3.631824;3.914859;3.773342;1.484219;1.922792;1.703505;9;19;14
27;5.350708;7.816895;2;0.9003906;2.755737;1.828064;0.2070568;0.22456;0.2158084;0.1501956;0.1640179;0.1571068;3.215959;3.279798;3.247879;1.284894;1.685689;1.485291;1;7;4
28;9.67157;12.17065;4;1.03302;2.376953;1.593796;0.1630312;0.2194004;0.1863828;0.06267056;0.1324764;0.1076507;1.571384;4.037174;3.281323;0.8757388;2.104925;1.480963;3;7;4.5
29;10.59399;13.25531;4;0.04400635;7.197693;2.271378;0.006041586;0.2365112;0.1049033;0.006041586;0.160451;0.06402165;0.2154451;3.040105;1.373425;0.165154;1.123885;0.6185717;0;23;6.25
30;3.452942;5.984985;1;2.42395;2.42395;2.42395;0.1959172;0.1959172;0.1959172;0.09935533;0.09935533;0.09935533;3.397915;3.397915;3.397915;1.48782;1.48782;1.48782;8;8;8
31;9.115601;11.62561;2;1.468079;6.165405;3.816742;0.1807807;0.1960982;0.1884394;0.07470092;0.09391733;0.08430912;3.563593;3.780352;3.671972;1.173396;1.791977;1.482686;6;19;12.5
32;10.41479;12.01416;1;9.164856;9.164856;9.164856;0.2112294;0.2112294;0.2112294;0.101174;0.101174;0.101174;3.583344;3.583344;3.583344;1.342977;1.342977;1.342977;28;28;28
33;11.01526;12.57874;1;10.21735;10.21735;10.21735;0.2171039;0.2171039;0.2171039;0.08676481;0.08676481;0.08676481;3.486621;3.486621;3.486621;1.218892;1.218892;1.218892;32;32;32
34;11.21545;12.85797;1;10.14124;10.14124;10.14124;0.2138799;0.2138799;0.2138799;0.125495;0.125495;0.125495;3.247648;3.247648;3.247648;1.196881;1.196881;1.196881;23;23;23
35;5.35083;7.104736;1;4.386353;4.386353;4.386353;0.2119818;0.2119818;0.2119818;0.07461617;0.07461617;0.07461617;3.182378;3.182378;3.182378;1.181521;1.181521;1.181521;15;15;15
72;17.11414;19.20154;4;0.2003174;11.52808;3.398895;0.00721404;0.2373093;0.07720101;0.00721404;0.1931445;0.06321646;0.4864258;2.098019;0.9921082;0.1896582;0.878049;0.412547;0;13;3.5
73;3.107788;6.138062;1;2.265259;2.265259;2.265259;0.224507;0.224507;0.224507;0.1482001;0.1482001;0.1482001;3.694672;3.694672;3.694672;1.0498;1.0498;1.0498;4;4;4
74;8.518311;10.67102;1;6.354004;6.354004;6.354004;0.2672969;0.2672969;0.2672969;0.180811;0.180811;0.180811;3.226516;3.226516;3.226516;0.8397631;0.8397631;0.8397631;8;8;8
75;6.171509;7.693237;1;5.144409;5.144409;5.144409;0.2267545;0.2267545;0.2267545;0.1923831;0.1923831;0.1923831;3.038352;3.038352;3.038352;0.790897;0.790897;0.790897;6;6;6
76;6.838257;9.00415;1;5.267578;5.267578;5.267578;0.2271764;0.2271764;0.2271764;0.2068305;0.2068305;0.2068305;2.56956;2.56956;2.56956;0.8423697;0.8423697;0.8423697;6;6;6
77;21.46716;23.26514;4;0.05578613;16.16064;5.025848;0.00955151;0.2379285;0.1220337;0.00955151;0.2202095;0.1062176;0.8163739;2.307967;1.432734;0.7732531;0.9721753;0.8637169;0;23;7
78;7.24939;9.82605;5;0.0004882813;5.164429;1.204053;0.001746565;0.2261783;0.06797557;0.001746565;0.1538732;0.04889834;0;1.923736;0.9402424;0;0.9705889;0.498935;0;9;2.2
79;8.005493;9.937744;1;6.818848;6.818848;6.818848;0.2177037;0.2177037;0.2177037;0.1669598;0.1669598;0.1669598;2.017175;2.017175;2.017175;0.915446;0.915446;0.915446;10;10;10
80;10.37024;11.97998;1;9.506592;9.506592;9.506592;0.2261918;0.2261918;0.2261918;0.1695291;0.1695291;0.1695291;2.038589;2.038589;2.038589;0.8353992;0.8353992;0.8353992;13;13;13
81;4.684814;6.649536;1;3.377686;3.377686;3.377686;0.2249362;0.2249362;0.2249362;0.1909578;0.1909578;0.1909578;1.789893;1.789893;1.789893;0.9956855;0.9956855;0.9956855;4;4;4
82;15.81213;17.50037;3;2.099609;7.606567;4.897013;0.1695735;0.2473024;0.2130874;0.1297289;0.1846198;0.1655319;1.535905;2.701273;2.139584;0.84253;1.493636;1.109775;2;15;9.333333
83;6.2948;8.046387;1;5.407715;5.407715;5.407715;0.2648779;0.2648779;0.2648779;0.1873435;0.1873435;0.1873435;3.409349;3.409349;3.409349;1.651937;1.651937;1.651937;12;12;12
84;5.207397;7.59436;1;4.287354;4.287354;4.287354;0.2187847;0.2187847;0.2187847;0.1975179;0.1975179;0.1975179;3.325904;3.325904;3.325904;1.779026;1.779026;1.779026;10;10;10
85;8.183105;9.892578;1;7.351807;7.351807;7.351807;0.2413047;0.2413047;0.2413047;0.1852541;0.1852541;0.1852541;2.111743;2.111743;2.111743;0.911763;0.911763;0.911763;10;10;10
86;9.559448;12.02612;2;3.829834;4.219971;4.024902;0.1988528;0.2193852;0.209119;0.09915566;0.1611266;0.1301411;3.368743;3.580584;3.474663;1.330854;1.712972;1.521913;10;14;12
87;2.605957;4.626709;1;1.899414;1.899414;1.899414;0.2185507;0.2185507;0.2185507;0.1289379;0.1289379;0.1289379;4.058332;4.058332;4.058332;1.494866;1.494866;1.494866;6;6;6
88;5.752563;8.294312;1;5.029785;5.029785;5.029785;0.2010714;0.2010714;0.2010714;0.1522931;0.1522931;0.1522931;3.378157;3.378157;3.378157;1.653985;1.653985;1.653985;14;14;14
89;4.185547;5.806396;1;3.198608;3.198608;3.198608;0.2039486;0.2039486;0.2039486;0.1498357;0.1498357;0.1498357;3.378018;3.378018;3.378018;1.775529;1.775529;1.775529;10;10;10
