sep=;
trial;trialInteractionElapsedTime;trialElapsedTime;nrInteractions;minDuration;maxDuration;avgDuration;nrTimesBtnFullyCompressed;minMaxBtnCompression;maxMaxBtnCompression;avgMaxBtnCompression;minAvgBtnCompression;maxAvgBtnCompression;avgAvgBtnCompression;minMaxFingerInterpenetration;maxMaxFingerInterpenetration;avgMaxFingerInterpenetration;minAvgFingerInterpenetration;maxAvgFingerInterpenetration;avgAvgFingerInterpenetration;minNrOscilatios;maxNrOscilatios;avgNrOscilatios
36;18.72644;20.42474;13;0.1107788;4.710388;0.9473454;1;0.06461531;0.9999999;0.4375117;0.02800737;0.6785933;0.2560999;0.01434971;0.1576614;0.0647698;0.009070462;0.1045028;0.04027479;0;8;2.230769
37;3.216797;4.815674;1;2.123718;2.123718;2.123718;0;0.8247108;0.8247108;0.8247108;0.4350551;0.4350551;0.4350551;0.1135207;0.1135207;0.1135207;0.06641079;0.06641079;0.06641079;8;8;8
38;4.329041;6.649414;1;3.421997;3.421997;3.421997;1;0.9999999;0.9999999;0.9999999;0.5752376;0.5752376;0.5752376;0.1601821;0.1601821;0.1601821;0.08906567;0.08906567;0.08906567;8;8;8
39;5.416443;7.117371;1;4.464111;4.464111;4.464111;1;0.9999999;0.9999999;0.9999999;0.6123905;0.6123905;0.6123905;0.1586724;0.1586724;0.1586724;0.09470624;0.09470624;0.09470624;10;10;10
40;4.294678;6.115723;1;3.344727;3.344727;3.344727;1;0.9999999;0.9999999;0.9999999;0.6102585;0.6102585;0.6102585;0.1560314;0.1560314;0.1560314;0.09438775;0.09438775;0.09438775;6;6;6
41;2.806213;4.527039;1;2.020935;2.020935;2.020935;0;0.9023458;0.9023458;0.9023458;0.4725812;0.4725812;0.4725812;0.1284663;0.1284663;0.1284663;0.07279567;0.07279567;0.07279567;6;6;6
42;10.89288;17.0675;1;8.840942;8.840942;8.840942;1;0.9999999;0.9999999;0.9999999;0.6411483;0.6411483;0.6411483;0.1547753;0.1547753;0.1547753;0.09887169;0.09887169;0.09887169;15;15;15
43;6.671387;8.625916;2;1.367615;3.72052;2.544067;0;0.5699775;0.8857314;0.7278545;0.3181046;0.5636415;0.440873;0.1031254;0.136405;0.1197652;0.05977629;0.08657767;0.07317698;3;6;4.5
44;4.716675;6.671692;1;2.410767;2.410767;2.410767;0;0.8491821;0.8491821;0.8491821;0.4412411;0.4412411;0.4412411;0.1286554;0.1286554;0.1286554;0.07039492;0.07039492;0.07039492;6;6;6
45;6.028198;7.981262;3;0.02227783;3.821045;1.647868;1;0;0.9999999;0.6185853;0;0.7435656;0.3996326;0;0.1639358;0.09788836;0;0.1161796;0.06209954;0;9;3.333333
46;5.018555;6.728271;1;2.489075;2.489075;2.489075;0;0.9043965;0.9043965;0.9043965;0.5951491;0.5951491;0.5951491;0.1380274;0.1380274;0.1380274;0.09144974;0.09144974;0.09144974;6;6;6
47;6.227722;8.360046;1;2.132874;2.132874;2.132874;0;0.8509377;0.8509377;0.8509377;0.5449762;0.5449762;0.5449762;0.1271251;0.1271251;0.1271251;0.08398135;0.08398135;0.08398135;6;6;6
48;9.225891;10.95758;4;0.9005737;3.544189;1.846634;0;0.5476312;0.6372274;0.6127546;0.3295447;0.5096838;0.4037071;0.08416374;0.09708315;0.09281605;0.05065013;0.07844751;0.06195438;2;7;3.25
49;4.015869;8.145142;2;1.155273;1.634033;1.394653;0;0.5724058;0.6533965;0.6129012;0.3380289;0.3854727;0.3617508;0.08757721;0.09992654;0.09375188;0.05188094;0.05919551;0.05553823;3;4;3.5
50;5.49762;7.429138;2;1.788452;2.153687;1.971069;0;0.5577059;0.7147745;0.6362402;0.2549471;0.4405028;0.347725;0.08542365;0.1083528;0.09688821;0.03916984;0.06773394;0.0534519;3;3;3
51;4.572754;6.437378;2;1.633423;1.754211;1.693817;0;0.7262612;0.8222465;0.7742538;0.3866189;0.5306052;0.4586121;0.1102714;0.126509;0.1183902;0.05955029;0.0817532;0.07065175;3;3;3
52;5.282349;6.905151;1;3.878723;3.878723;3.878723;0;0.9891755;0.9891755;0.9891755;0.5921778;0.5921778;0.5921778;0.1521409;0.1521409;0.1521409;0.09120803;0.09120803;0.09120803;6;6;6
53;4.640381;7.249268;1;3.544312;3.544312;3.544312;1;0.9999999;0.9999999;0.9999999;0.6295837;0.6295837;0.6295837;0.1691463;0.1691463;0.1691463;0.09947468;0.09947468;0.09947468;8;8;8
90;4.618652;6.286133;5;0.02185059;1.665405;0.5195801;0;0;0.7778129;0.3088827;0;0.5418893;0.1961934;0;0.1156746;0.0504853;0;0.08280776;0.03195243;0;2;0.8
91;2.96106;4.993774;2;0.7116699;1.332886;1.022278;0;0.6376154;0.7323843;0.6849998;0.3562189;0.4842218;0.4202204;0.09862556;0.1114197;0.1050226;0.05454915;0.07390104;0.06422509;1;3;2
92;3.939697;6.059692;2;1.310547;1.39856;1.354553;0;0.6074651;0.7903664;0.6989157;0.3089225;0.4727354;0.3908289;0.0926754;0.1204753;0.1065754;0.04729645;0.07252559;0.05991102;3;3;3
93;7.094849;8.871338;1;6.029907;6.029907;6.029907;0;0.8578634;0.8578634;0.8578634;0.462688;0.462688;0.462688;0.1308897;0.1308897;0.1308897;0.07114331;0.07114331;0.07114331;12;12;12
94;4.262451;5.873047;1;3.420532;3.420532;3.420532;0;0.8831803;0.8831803;0.8831803;0.4479436;0.4479436;0.4479436;0.128023;0.128023;0.128023;0.06854498;0.06854498;0.06854498;10;10;10
95;2.518921;4.150391;1;1.544556;1.544556;1.544556;0;0.8092517;0.8092517;0.8092517;0.4586892;0.4586892;0.4586892;0.1211883;0.1211883;0.1211883;0.07011482;0.07011482;0.07011482;6;6;6
96;3.973145;5.539307;1;2.876709;2.876709;2.876709;0;0.8676459;0.8676459;0.8676459;0.5109581;0.5109581;0.5109581;0.128297;0.128297;0.128297;0.07886606;0.07886606;0.07886606;8;8;8
97;3.815674;5.293457;1;2.799683;2.799683;2.799683;0;0.8996529;0.8996529;0.8996529;0.472236;0.472236;0.472236;0.136961;0.136961;0.136961;0.07276829;0.07276829;0.07276829;6;6;6
98;3.261108;4.848633;1;2.28772;2.28772;2.28772;0;0.9942309;0.9942309;0.9942309;0.4662328;0.4662328;0.4662328;0.1312196;0.1312196;0.1312196;0.0723149;0.0723149;0.0723149;8;8;8
99;4.895386;6.528809;2;1.142944;2.278564;1.710754;0;0.7383409;0.9238294;0.8310851;0.4054859;0.4847775;0.4451317;0.1061261;0.1292306;0.1176783;0.06495998;0.07476121;0.06986059;5;5;5
100;3.604004;6.81543;1;2.518921;2.518921;2.518921;0;0.9199852;0.9199852;0.9199852;0.4533283;0.4533283;0.4533283;0.1289959;0.1289959;0.1289959;0.06963909;0.06963909;0.06963909;6;6;6
101;5.152222;6.761841;2;0.9776611;2.713623;1.845642;0;0.5048155;0.8897276;0.6972716;0.2661212;0.4916081;0.3788646;0.09832601;0.1335165;0.1159212;0.05499833;0.07574693;0.06537263;5;5;5
102;6.838867;8.449341;2;1.077881;4.329712;2.703796;0;0.6175283;0.701438;0.6594831;0.3390325;0.4472677;0.3931501;0.09220257;0.1021487;0.09717561;0.05167709;0.06883571;0.0602564;5;9;7
103;3.706787;5.304688;2;0.4891357;1.065308;0.7772217;0;0.6460574;0.7364132;0.6912353;0.3779405;0.439025;0.4084828;0.09780632;0.1050004;0.1014033;0.05788566;0.06766728;0.06277647;1;5;3
104;4.984497;7.871948;1;3.609497;3.609497;3.609497;0;0.768733;0.768733;0.768733;0.4792073;0.4792073;0.4792073;0.1175602;0.1175602;0.1175602;0.07391042;0.07391042;0.07391042;6;6;6
105;2.296631;4.393555;1;1.622314;1.622314;1.622314;0;0.7950044;0.7950044;0.7950044;0.363742;0.363742;0.363742;0.1062307;0.1062307;0.1062307;0.05537624;0.05537624;0.05537624;4;4;4
106;2.842285;4.353271;1;1.866943;1.866943;1.866943;0;0.868857;0.868857;0.868857;0.4294292;0.4294292;0.4294292;0.1277881;0.1277881;0.1277881;0.06627574;0.06627574;0.06627574;4;4;4
107;4.349854;6.403442;2;0.02246094;2.898315;1.460388;0;0;0.8671651;0.4335825;0;0.5086068;0.2543034;0;0.1335054;0.0667527;0;0.07818983;0.03909491;0;8;4
