sep=;
trial;trialInteractionElapsedTime;trialElapsedTime;nrInteractions;minDuration;maxDuration;avgDuration;minMaxFingerDisplacement;maxMaxFingerDisplacement;avgMaxFingerDisplacement;minAvgFingerDisplacement;maxAvgFingerDisplacement;avgAvgFingerDisplacement;minMaxSpeed;maxMaxSpeed;avgMaxSpeed;minAvgSpeed;maxAvgSpeed;avgAvgSpeed;minNrOscilatios;maxNrOscilatios;avgNrOscilatios
0;0;0;6;0.0222168;11.75049;3.459432;0.004967809;0.2124754;0.1462643;0.004967809;0.1699976;0.0997645;0.1161729;1.530748;1.013907;0.1161729;0.7713471;0.5226282;0;13;4.166667
1;0;0;7;1.265625;8.18457;3.547398;0.1318654;0.2588551;0.209956;0.05324217;0.2049564;0.1554228;1.28406;1.990961;1.676581;0.6336548;1.024716;0.8558436;1;10;4.285714
2;0;0;5;2.155762;4.396729;3.05459;0.1744313;0.2641857;0.216197;0.1068745;0.2191122;0.1552312;1.577036;2.537069;2.015724;0.8891662;1.317798;1.015381;2;6;4.4
3;0;0;3;1.487549;10.9729;5.786133;0.008161873;0.2038918;0.1376023;0.008161873;0.1718771;0.1093982;0.3996375;1.281796;0.9614775;0.1778725;0.6856959;0.4611239;0;10;5.666667
4;0;0;7;0.0004882813;6.064941;2.2372;0.01754683;0.2361478;0.1631482;0.01754683;0.1882048;0.1106237;0;2.653016;1.613616;0;1.193237;0.7413566;0;7;3
5;0;0;5;3.032227;7.696533;4.222852;0.1871371;0.2387483;0.2089841;0.1233513;0.1713281;0.1429787;1.490807;2.108518;1.865809;0.764516;1.038575;0.9335222;4;8;6
