user name: 8
folder: C:\repos\unity\ferran\ManusSteamVR\HandInteractions\Build\exp2\exp_results
block order: 1 = 2_BlockOrder Slide-Tap-Press 2-0-1
session start: 2022-03-16_14-07-56
session end: 2022-03-16_14-34-33
calibration durations: 366.6469;43.19281;
